ISO-10303-21;
HEADER;
FILE_DESCRIPTION (( 'STEP AP214' ),
    '1' );
FILE_NAME ('TA26.001_RevC Housing.STEP',
    '2020-05-16T09:46:28',
    ( '' ),
    ( '' ),
    'SwSTEP 2.0',
    'SolidWorks 2018',
    '' );
FILE_SCHEMA (( 'AUTOMOTIVE_DESIGN' ));
ENDSEC;

DATA;
#1 = CIRCLE ( 'NONE', #674, 3.750000000000017319 ) ;
#2 = PRESENTATION_STYLE_ASSIGNMENT (( #264 ) ) ;
#3 = CIRCLE ( 'NONE', #345, 1.749999999999997113 ) ;
#4 = DIRECTION ( 'NONE',  ( 0.0000000000000000000, 0.0000000000000000000, 1.000000000000000000 ) ) ;
#5 = VERTEX_POINT ( 'NONE', #137 ) ;
#6 = VERTEX_POINT ( 'NONE', #290 ) ;
#7 = ORIENTED_EDGE ( 'NONE', *, *, #101, .F. ) ;
#8 = CARTESIAN_POINT ( 'NONE',  ( 2.500000000000000444, 10.33481529847552949, 24.37211521390788604 ) ) ;
#9 = DIRECTION ( 'NONE',  ( -0.0000000000000000000, -1.000000000000000000, -0.0000000000000000000 ) ) ;
#10 = CARTESIAN_POINT ( 'NONE',  ( -2.500000000000000000, 10.49999999999999645, 20.00000000000000000 ) ) ;
#11 = EDGE_CURVE ( 'NONE', #5, #953, #682, .T. ) ;
#12 = EDGE_CURVE ( 'NONE', #223, #160, #561, .T. ) ;
#13 = DIRECTION ( 'NONE',  ( 0.0000000000000000000, 0.0000000000000000000, -1.000000000000000000 ) ) ;
#14 = LINE ( 'NONE', #449, #559 ) ;
#15 = DIRECTION ( 'NONE',  ( 0.0000000000000000000, 0.0000000000000000000, 1.000000000000000000 ) ) ;
#16 = FACE_OUTER_BOUND ( 'NONE', #926, .T. ) ;
#17 = ORIENTED_EDGE ( 'NONE', *, *, #88, .T. ) ;
#18 = ORIENTED_EDGE ( 'NONE', *, *, #617, .F. ) ;
#19 = DIRECTION ( 'NONE',  ( -0.0000000000000000000, -1.000000000000000000, -0.0000000000000000000 ) ) ;
#20 = ADVANCED_FACE ( 'NONE', ( #514 ), #30, .F. ) ;
#21 = ORIENTED_EDGE ( 'NONE', *, *, #617, .T. ) ;
#22 = AXIS2_PLACEMENT_3D ( 'NONE', #349, #35, #204 ) ;
#23 = SURFACE_SIDE_STYLE ('',( #533 ) ) ;
#24 = FILL_AREA_STYLE ('',( #882 ) ) ;
#25 = EDGE_CURVE ( 'NONE', #6, #148, #55, .T. ) ;
#26 = PLANE ( 'NONE',  #186 ) ;
#27 = CYLINDRICAL_SURFACE ( 'NONE', #722, 24.50000000000000000 ) ;
#28 = DIRECTION ( 'NONE',  ( 0.0000000000000000000, -0.7071067811865474617, -0.7071067811865474617 ) ) ;
#29 = LINE ( 'NONE', #497, #727 ) ;
#30 = CYLINDRICAL_SURFACE ( 'NONE', #728, 1.199999999999999734 ) ;
#31 = ADVANCED_FACE ( 'NONE', ( #353 ), #132, .T. ) ;
#32 = ORIENTED_EDGE ( 'NONE', *, *, #404, .F. ) ;
#33 = EDGE_CURVE ( 'NONE', #463, #267, #747, .T. ) ;
#34 = ORIENTED_EDGE ( 'NONE', *, *, #177, .F. ) ;
#35 = DIRECTION ( 'NONE',  ( 0.0000000000000000000, 1.000000000000000000, 0.0000000000000000000 ) ) ;
#36 = CARTESIAN_POINT ( 'NONE',  ( -2.500000000000000000, 10.49999999999999645, 26.88401011754012160 ) ) ;
#37 = AXIS2_PLACEMENT_3D ( 'NONE', #426, #110, #658 ) ;
#38 = FACE_OUTER_BOUND ( 'NONE', #800, .T. ) ;
#39 = UNCERTAINTY_MEASURE_WITH_UNIT (LENGTH_MEASURE( 1.000000000000000082E-05 ), #574, 'distance_accuracy_value', 'NONE');
#40 = VECTOR ( 'NONE', #828, 1000.000000000000000 ) ;
#41 = EDGE_LOOP ( 'NONE', ( #914, #615, #731, #589 ) ) ;
#42 = B_SPLINE_CURVE_WITH_KNOTS ( 'NONE', 3,
 ( #566, #942, #491, #265 ),
 .UNSPECIFIED., .F., .F.,
 ( 4, 4 ),
 ( 3.878959614448864246E-18, 0.0007086628486677711350 ),
 .UNSPECIFIED. ) ;
#43 = CARTESIAN_POINT ( 'NONE',  ( -4.898587196589413026E-15, 2.999999999999998224, -18.80000000000000071 ) ) ;
#44 = ORIENTED_EDGE ( 'NONE', *, *, #701, .T. ) ;
#45 = ORIENTED_EDGE ( 'NONE', *, *, #453, .T. ) ;
#46 = CARTESIAN_POINT ( 'NONE',  ( -15.00000000000000000, 2.999999999999998224, 9.184850993605149917E-16 ) ) ;
#47 = EDGE_CURVE ( 'NONE', #121, #447, #302, .T. ) ;
#48 = DIRECTION ( 'NONE',  ( -0.0000000000000000000, -0.0000000000000000000, 1.000000000000000000 ) ) ;
#49 = CARTESIAN_POINT ( 'NONE',  ( 0.0000000000000000000, 13.99999999999999645, 0.0000000000000000000 ) ) ;
#50 = EDGE_CURVE ( 'NONE', #729, #600, #970, .T. ) ;
#51 = FACE_OUTER_BOUND ( 'NONE', #465, .T. ) ;
#52 = CARTESIAN_POINT ( 'NONE',  ( 0.8061070181420836311, 8.127930184502305977, 26.98838380562907702 ) ) ;
#53 = CONICAL_SURFACE ( 'NONE', #913, 1.749999999999997113, 0.7853981633974482790 ) ;
#54 = CARTESIAN_POINT ( 'NONE',  ( -4.751629580691730375E-15, 2.999999999999998224, -21.19999999999999929 ) ) ;
#55 = CIRCLE ( 'NONE', #827, 1.749999999999997113 ) ;
#56 = ORIENTED_EDGE ( 'NONE', *, *, #329, .F. ) ;
#57 = ORIENTED_EDGE ( 'NONE', *, *, #763, .T. ) ;
#58 = CARTESIAN_POINT ( 'NONE',  ( 2.500000000000010214, 13.99999999999999645, 24.37211521390788249 ) ) ;
#59 = DIRECTION ( 'NONE',  ( 0.0000000000000000000, 0.0000000000000000000, -1.000000000000000000 ) ) ;
#60 = DIRECTION ( 'NONE',  ( 0.0000000000000000000, 0.0000000000000000000, 1.000000000000000000 ) ) ;
#61 = AXIS2_PLACEMENT_3D ( 'NONE', #282, #199, #889 ) ;
#62 = CARTESIAN_POINT ( 'NONE',  ( 0.0000000000000000000, 13.49999999999998579, -27.00000000000000000 ) ) ;
#63 = CARTESIAN_POINT ( 'NONE',  ( -2.500000000000000000, 10.33466503229642974, 24.37211521390787894 ) ) ;
#64 = CARTESIAN_POINT ( 'NONE',  ( -15.00000000000000000, 2.000000000000018208, 9.184850993605149917E-16 ) ) ;
#65 = DIRECTION ( 'NONE',  ( 8.659560562354932858E-17, -0.7071067811865474617, 0.7071067811865474617 ) ) ;
#66 = EDGE_CURVE ( 'NONE', #380, #209, #339, .T. ) ;
#67 = FACE_OUTER_BOUND ( 'NONE', #888, .T. ) ;
#68 = EDGE_CURVE ( 'NONE', #1004, #925, #709, .T. ) ;
#69 = ORIENTED_EDGE ( 'NONE', *, *, #865, .F. ) ;
#70 = CARTESIAN_POINT ( 'NONE',  ( 0.6492051675017522783, 8.080241202211560392, 24.49192155621140543 ) ) ;
#71 = ORIENTED_EDGE ( 'NONE', *, *, #445, .F. ) ;
#72 = VERTEX_POINT ( 'NONE', #143 ) ;
#73 = CARTESIAN_POINT ( 'NONE',  ( 0.0000000000000000000, -1.653273178848926867E-15, 26.50000000000000355 ) ) ;
#74 = CARTESIAN_POINT ( 'NONE',  ( -1.650507282970014034, 8.615050730391526912, 26.94975876136404835 ) ) ;
#75 = STYLED_ITEM ( 'NONE', ( #409 ), #606 ) ;
#76 = CARTESIAN_POINT ( 'NONE',  ( -2.483436228070030616, 10.16952372670969318, 26.88556453098668797 ) ) ;
#77 = DIRECTION ( 'NONE',  ( 0.0000000000000000000, 1.000000000000000000, 0.0000000000000000000 ) ) ;
#78 = DIRECTION ( 'NONE',  ( 0.0000000000000000000, 0.0000000000000000000, -1.000000000000000000 ) ) ;
#79 = FACE_OUTER_BOUND ( 'NONE', #474, .T. ) ;
#80 = FACE_OUTER_BOUND ( 'NONE', #938, .T. ) ;
#81 = AXIS2_PLACEMENT_3D ( 'NONE', #263, #801, #13 ) ;
#82 = ORIENTED_EDGE ( 'NONE', *, *, #581, .F. ) ;
#83 = VERTEX_POINT ( 'NONE', #237 ) ;
#84 = CARTESIAN_POINT ( 'NONE',  ( 0.0000000000000000000, 13.49999999999998579, 0.0000000000000000000 ) ) ;
#85 = ORIENTED_EDGE ( 'NONE', *, *, #12, .T. ) ;
#86 = DIRECTION ( 'NONE',  ( -0.0000000000000000000, -1.000000000000000000, -0.0000000000000000000 ) ) ;
#87 = CARTESIAN_POINT ( 'NONE',  ( -15.00000000000000000, 0.0000000000000000000, 9.184850993605149917E-16 ) ) ;
#88 = EDGE_CURVE ( 'NONE', #6, #774, #388, .T. ) ;
#89 = DIRECTION ( 'NONE',  ( 0.0000000000000000000, 0.0000000000000000000, 1.000000000000000000 ) ) ;
#90 = CIRCLE ( 'NONE', #839, 1.749999999999997113 ) ;
#91 = CARTESIAN_POINT ( 'NONE',  ( -4.898587196589413026E-15, 2.999999999999998224, -18.80000000000000071 ) ) ;
#92 = VERTEX_POINT ( 'NONE', #854 ) ;
#93 = ORIENTED_EDGE ( 'NONE', *, *, #892, .T. ) ;
#94 = DIRECTION ( 'NONE',  ( -0.0000000000000000000, -1.000000000000000000, -0.0000000000000000000 ) ) ;
#95 = AXIS2_PLACEMENT_3D ( 'NONE', #907, #129, #368 ) ;
#96 = ORIENTED_EDGE ( 'NONE', *, *, #818, .F. ) ;
#97 = ORIENTED_EDGE ( 'NONE', *, *, #510, .F. ) ;
#98 = DIRECTION ( 'NONE',  ( -0.0000000000000000000, 1.000000000000000000, -0.0000000000000000000 ) ) ;
#99 = DIRECTION ( 'NONE',  ( 0.0000000000000000000, 0.0000000000000000000, -1.000000000000000000 ) ) ;
#100 = CARTESIAN_POINT ( 'NONE',  ( -15.00000000000000000, -1.653273178848926867E-15, 9.184850993605149917E-16 ) ) ;
#101 = EDGE_CURVE ( 'NONE', #673, #588, #107, .T. ) ;
#102 = DIRECTION ( 'NONE',  ( 0.0000000000000000000, 1.000000000000000000, 0.0000000000000000000 ) ) ;
#103 =( NAMED_UNIT ( * ) PLANE_ANGLE_UNIT ( ) SI_UNIT ( $, .RADIAN. ) );
#104 = CIRCLE ( 'NONE', #358, 26.49999999999999289 ) ;
#105 = DIRECTION ( 'NONE',  ( 0.0000000000000000000, 1.000000000000000000, 0.0000000000000000000 ) ) ;
#106 = CIRCLE ( 'NONE', #1003, 24.50000000000000000 ) ;
#107 = LINE ( 'NONE', #558, #855 ) ;
#108 = DIRECTION ( 'NONE',  ( -0.0000000000000000000, -0.0000000000000000000, 1.000000000000000000 ) ) ;
#109 = EDGE_LOOP ( 'NONE', ( #366, #814 ) ) ;
#110 = DIRECTION ( 'NONE',  ( -0.0000000000000000000, 1.000000000000000000, -0.0000000000000000000 ) ) ;
#111 = ORIENTED_EDGE ( 'NONE', *, *, #451, .T. ) ;
#112 = PRODUCT_DEFINITION ( 'UNKNOWN', '', #584, #995 ) ;
#113 = ADVANCED_FACE ( 'NONE', ( #279 ), #53, .F. ) ;
#114 =( NAMED_UNIT ( * ) SI_UNIT ( $, .STERADIAN. ) SOLID_ANGLE_UNIT ( ) );
#115 = CARTESIAN_POINT ( 'NONE',  ( 3.000384657911015469E-15, 3.000000000000002665, -24.50000000000000000 ) ) ;
#116 = AXIS2_PLACEMENT_3D ( 'NONE', #346, #592, #883 ) ;
#117 = CARTESIAN_POINT ( 'NONE',  ( 0.0000000000000000000, 13.99999999999999645, 0.0000000000000000000 ) ) ;
#118 = LINE ( 'NONE', #873, #372 ) ;
#119 = ORIENTED_EDGE ( 'NONE', *, *, #864, .T. ) ;
#120 = DIRECTION ( 'NONE',  ( -0.0000000000000000000, -1.000000000000000000, -0.0000000000000000000 ) ) ;
#121 = VERTEX_POINT ( 'NONE', #556 ) ;
#122 = EDGE_CURVE ( 'NONE', #575, #786, #853, .T. ) ;
#123 = EDGE_LOOP ( 'NONE', ( #291, #955, #661, #82 ) ) ;
#124 = EDGE_CURVE ( 'NONE', #209, #380, #831, .T. ) ;
#125 = DIRECTION ( 'NONE',  ( 0.0000000000000000000, 0.0000000000000000000, -1.000000000000000000 ) ) ;
#126 = B_SPLINE_CURVE_WITH_KNOTS ( 'NONE', 3,
 ( #916, #996, #215, #759, #618, #751, #139, #604, #149, #228, #440, #133, #981, #52, #683, #830, #369, #990 ),
 .UNSPECIFIED., .F., .F.,
 ( 4, 2, 2, 2, 2, 2, 2, 2, 4 ),
 ( 0.0000000000000000000, 0.0004888830929088161265, 0.0009777661858176322530, 0.001466649278726448380, 0.001955532371635264506, 0.002444415464544080416, 0.002933298557452896759, 0.003422181650361713103, 0.003911064743270529012 ),
 .UNSPECIFIED. ) ;
#127 = CARTESIAN_POINT ( 'NONE',  ( 0.0000000000000000000, 0.5000000000000057732, -27.00000000000000000 ) ) ;
#128 = AXIS2_PLACEMENT_3D ( 'NONE', #806, #202, #429 ) ;
#129 = DIRECTION ( 'NONE',  ( -0.0000000000000000000, -1.000000000000000000, -0.0000000000000000000 ) ) ;
#130 = LINE ( 'NONE', #299, #156 ) ;
#131 = LINE ( 'NONE', #295, #40 ) ;
#132 = CONICAL_SURFACE ( 'NONE', #490, 27.00000000000000000, 0.7853981633974447263 ) ;
#133 = CARTESIAN_POINT ( 'NONE',  ( 1.252490171082909498, 8.330136940853247296, 26.97128114763485129 ) ) ;
#134 = DIRECTION ( 'NONE',  ( 0.0000000000000000000, 1.000000000000000000, 0.0000000000000000000 ) ) ;
#135 = ORIENTED_EDGE ( 'NONE', *, *, #601, .T. ) ;
#136 = ORIENTED_EDGE ( 'NONE', *, *, #229, .T. ) ;
#137 = CARTESIAN_POINT ( 'NONE',  ( 1.469576158976823060E-16, 1.500000000000005995, 18.80000000000000071 ) ) ;
#138 = EDGE_CURVE ( 'NONE', #623, #536, #659, .T. ) ;
#139 = CARTESIAN_POINT ( 'NONE',  ( 2.169583725356868165, 9.247160186029445228, 26.91284441714985931 ) ) ;
#140 = DIRECTION ( 'NONE',  ( 0.0000000000000000000, 0.0000000000000000000, 1.000000000000000000 ) ) ;
#141 = PLANE ( 'NONE',  #274 ) ;
#142 = EDGE_CURVE ( 'NONE', #575, #503, #784, .T. ) ;
#143 = CARTESIAN_POINT ( 'NONE',  ( 3.275930187719170341E-15, -1.653273178848926867E-15, -26.50000000000000355 ) ) ;
#144 = LINE ( 'NONE', #928, #886 ) ;
#145 = CARTESIAN_POINT ( 'NONE',  ( 15.00000000000000000, 2.000000000000017319, 9.184850993605151889E-16 ) ) ;
#146 = ORIENTED_EDGE ( 'NONE', *, *, #25, .F. ) ;
#147 = DIRECTION ( 'NONE',  ( 0.0000000000000000000, 0.7071067811865549002, 0.7071067811865402453 ) ) ;
#148 = VERTEX_POINT ( 'NONE', #862 ) ;
#149 = CARTESIAN_POINT ( 'NONE',  ( 1.882442294438335662, 8.846823085571033474, 26.93454602445013535 ) ) ;
#150 = CARTESIAN_POINT ( 'NONE',  ( -3.668439867549271199E-23, 7.999999999999996447, 24.50000000000000000 ) ) ;
#151 = AXIS2_PLACEMENT_3D ( 'NONE', #689, #537, #227 ) ;
#152 = CARTESIAN_POINT ( 'NONE',  ( -4.898587196589413026E-15, -1.653273178848926867E-15, -20.00000000000000000 ) ) ;
#153 = CARTESIAN_POINT ( 'NONE',  ( -1.882421740481200256, 8.846801827798692841, 24.42785000316836275 ) ) ;
#154 = DIRECTION ( 'NONE',  ( 0.0000000000000000000, 0.0000000000000000000, -1.000000000000000000 ) ) ;
#155 = DIRECTION ( 'NONE',  ( 0.0000000000000000000, 1.000000000000000000, 0.0000000000000000000 ) ) ;
#156 = VECTOR ( 'NONE', #755, 1000.000000000000000 ) ;
#157 = AXIS2_PLACEMENT_3D ( 'NONE', #485, #94, #641 ) ;
#158 = VECTOR ( 'NONE', #940, 1000.000000000000000 ) ;
#159 = CARTESIAN_POINT ( 'NONE',  ( 0.0000000000000000000, -1.653273178848926867E-15, 17.29999999999999361 ) ) ;
#160 = VERTEX_POINT ( 'NONE', #548 ) ;
#161 = ORIENTED_EDGE ( 'NONE', *, *, #66, .T. ) ;
#162 = DIRECTION ( 'NONE',  ( -0.0000000000000000000, -1.000000000000000000, -0.0000000000000000000 ) ) ;
#163 = ORIENTED_EDGE ( 'NONE', *, *, #986, .F. ) ;
#164 = CARTESIAN_POINT ( 'NONE',  ( -15.00000000000000000, 0.0000000000000000000, 1.749999999999998002 ) ) ;
#165 = SURFACE_STYLE_USAGE ( .BOTH. , #443 ) ;
#166 = COLOUR_RGB ( '',0.8980392156862745390, 0.9176470588235293713, 0.9294117647058823817 ) ;
#167 = VECTOR ( 'NONE', #271, 1000.000000000000114 ) ;
#168 = FACE_OUTER_BOUND ( 'NONE', #748, .T. ) ;
#169 = AXIS2_PLACEMENT_3D ( 'NONE', #676, #742, #140 ) ;
#170 = ORIENTED_EDGE ( 'NONE', *, *, #208, .T. ) ;
#171 = EDGE_LOOP ( 'NONE', ( #660, #392, #233, #435, #412, #187 ) ) ;
#172 = CARTESIAN_POINT ( 'NONE',  ( 2.419317465384486887, 9.849169630575739021, 24.38027770663071436 ) ) ;
#173 = EDGE_LOOP ( 'NONE', ( #170, #111, #663, #901 ) ) ;
#174 = DIRECTION ( 'NONE',  ( 0.0000000000000000000, 1.000000000000000000, 0.0000000000000000000 ) ) ;
#175 = DIRECTION ( 'NONE',  ( 0.0000000000000000000, 1.000000000000000000, -0.0000000000000000000 ) ) ;
#176 = EDGE_CURVE ( 'NONE', #623, #587, #311, .T. ) ;
#177 = EDGE_CURVE ( 'NONE', #447, #121, #106, .T. ) ;
#178 = DIRECTION ( 'NONE',  ( -0.0000000000000000000, -1.000000000000000000, -0.0000000000000000000 ) ) ;
#179 = CARTESIAN_POINT ( 'NONE',  ( 0.0000000000000000000, -1.653273178848926867E-15, 0.0000000000000000000 ) ) ;
#180 = DIRECTION ( 'NONE',  ( 0.0000000000000000000, 0.0000000000000000000, -1.000000000000000000 ) ) ;
#181 = CIRCLE ( 'NONE', #151, 2.700000000000008171 ) ;
#182 = DIRECTION ( 'NONE',  ( 0.0000000000000000000, 1.000000000000000000, 0.0000000000000000000 ) ) ;
#183 = CYLINDRICAL_SURFACE ( 'NONE', #61, 24.50000000000000000 ) ;
#184 = EDGE_LOOP ( 'NONE', ( #737, #135, #834, #833 ) ) ;
#185 = DIRECTION ( 'NONE',  ( 0.0000000000000000000, 1.000000000000000000, 0.0000000000000000000 ) ) ;
#186 = AXIS2_PLACEMENT_3D ( 'NONE', #669, #513, #357 ) ;
#187 = ORIENTED_EDGE ( 'NONE', *, *, #653, .F. ) ;
#188 = ORIENTED_EDGE ( 'NONE', *, *, #545, .T. ) ;
#189 = PRODUCT_DEFINITION_SHAPE ( 'NONE', 'NONE',  #112 ) ;
#190 = DIRECTION ( 'NONE',  ( -0.0000000000000000000, 1.000000000000000000, -0.0000000000000000000 ) ) ;
#191 = DIRECTION ( 'NONE',  ( 0.0000000000000000000, -1.000000000000000000, 0.0000000000000000000 ) ) ;
#192 = EDGE_CURVE ( 'NONE', #815, #616, #585, .T. ) ;
#193 = DIRECTION ( 'NONE',  ( -0.0000000000000000000, -1.000000000000000000, -0.0000000000000000000 ) ) ;
#194 = APPLICATION_CONTEXT ( 'automotive_design' ) ;
#195 = FACE_OUTER_BOUND ( 'NONE', #880, .T. ) ;
#196 = CARTESIAN_POINT ( 'NONE',  ( 0.0000000000000000000, -1.653273178848926867E-15, 0.0000000000000000000 ) ) ;
#197 = CYLINDRICAL_SURFACE ( 'NONE', #959, 1.749999999999998002 ) ;
#198 = ORIENTED_EDGE ( 'NONE', *, *, #417, .T. ) ;
#199 = DIRECTION ( 'NONE',  ( -0.0000000000000000000, 1.000000000000000000, -0.0000000000000000000 ) ) ;
#200 = ORIENTED_EDGE ( 'NONE', *, *, #280, .F. ) ;
#201 = UNCERTAINTY_MEASURE_WITH_UNIT (LENGTH_MEASURE( 1.000000000000000082E-05 ), #879, 'distance_accuracy_value', 'NONE');
#202 = DIRECTION ( 'NONE',  ( 0.0000000000000000000, -1.000000000000000000, 0.0000000000000000000 ) ) ;
#203 = AXIS2_PLACEMENT_3D ( 'NONE', #924, #857, #154 ) ;
#204 = DIRECTION ( 'NONE',  ( 0.0000000000000000000, 0.0000000000000000000, 1.000000000000000000 ) ) ;
#205 = FACE_BOUND ( 'NONE', #858, .T. ) ;
#206 = FACE_OUTER_BOUND ( 'NONE', #501, .T. ) ;
#207 = VERTEX_POINT ( 'NONE', #326 ) ;
#208 = EDGE_CURVE ( 'NONE', #160, #223, #266, .T. ) ;
#209 = VERTEX_POINT ( 'NONE', #651 ) ;
#210 =( NAMED_UNIT ( * ) PLANE_ANGLE_UNIT ( ) SI_UNIT ( $, .RADIAN. ) );
#211 = FILL_AREA_STYLE_COLOUR ( '', #642 ) ;
#212 =( NAMED_UNIT ( * ) SI_UNIT ( $, .STERADIAN. ) SOLID_ANGLE_UNIT ( ) );
#213 = EDGE_CURVE ( 'NONE', #736, #477, #974, .T. ) ;
#214 = CARTESIAN_POINT ( 'NONE',  ( 0.0000000000000000000, 13.49999999999998579, 0.0000000000000000000 ) ) ;
#215 = CARTESIAN_POINT ( 'NONE',  ( 2.483764319258901843, 10.17215272124728642, 26.88553392432249112 ) ) ;
#216 = CARTESIAN_POINT ( 'NONE',  ( 3.306546396784215536E-15, 7.999999999999996447, 27.00000000000000000 ) ) ;
#217 = VECTOR ( 'NONE', #650, 1000.000000000000000 ) ;
#218 = CYLINDRICAL_SURFACE ( 'NONE', #528, 1.199999999999999734 ) ;
#219 = CONICAL_SURFACE ( 'NONE', #860, 26.50000000000000355, 0.7853981633974380649 ) ;
#220 = VERTEX_POINT ( 'NONE', #654 ) ;
#221 = DIRECTION ( 'NONE',  ( 0.0000000000000000000, 0.0000000000000000000, 1.000000000000000000 ) ) ;
#222 = ORIENTED_EDGE ( 'NONE', *, *, #864, .F. ) ;
#223 = VERTEX_POINT ( 'NONE', #718 ) ;
#224 = CLOSED_SHELL ( 'NONE', ( #643, #331, #113, #878, #258, #652, #20, #807, #504, #275, #797, #723, #509, #803, #829, #354, #662, #965, #493, #343, #334, #31, #948, #347, #418, #943, #569, #580, #273, #655 ) ) ;
#225 = AXIS2_PLACEMENT_3D ( 'NONE', #752, #441, #679 ) ;
#226 = CARTESIAN_POINT ( 'NONE',  ( 2.500000000000000000, 10.49999999999999645, 24.37211521390788249 ) ) ;
#227 = DIRECTION ( 'NONE',  ( 0.0000000000000000000, 0.0000000000000000000, 1.000000000000000000 ) ) ;
#228 = CARTESIAN_POINT ( 'NONE',  ( 1.651779652034808921, 8.616331535695591626, 26.94967499834157110 ) ) ;
#229 = EDGE_CURVE ( 'NONE', #383, #489, #769, .T. ) ;
#230 = CARTESIAN_POINT ( 'NONE',  ( 1.253750122780866283, 8.330992605090063563, 24.46827490008229589 ) ) ;
#231 = DIRECTION ( 'NONE',  ( 0.0000000000000000000, 0.0000000000000000000, 1.000000000000000000 ) ) ;
#232 = CONICAL_SURFACE ( 'NONE', #712, 2.700000000000008171, 0.7853981633974485010 ) ;
#233 = ORIENTED_EDGE ( 'NONE', *, *, #50, .F. ) ;
#234 = ORIENTED_EDGE ( 'NONE', *, *, #431, .F. ) ;
#235 = CARTESIAN_POINT ( 'NONE',  ( -0.6491499049892492934, 8.080226824751196801, 26.99267103447035154 ) ) ;
#236 = ORIENTED_EDGE ( 'NONE', *, *, #562, .T. ) ;
#237 = CARTESIAN_POINT ( 'NONE',  ( -15.00000000000000000, 2.000000000000018208, 1.749999999999998002 ) ) ;
#238 = AXIS2_PLACEMENT_3D ( 'NONE', #464, #698, #231 ) ;
#239 = DIRECTION ( 'NONE',  ( -0.0000000000000000000, -0.0000000000000000000, 1.000000000000000000 ) ) ;
#240 = CARTESIAN_POINT ( 'NONE',  ( -2.500000000000001776, 13.66667349556296251, 26.71661751649121186 ) ) ;
#241 = ADVANCED_BREP_SHAPE_REPRESENTATION ( 'TA26.001_RevC Housing', ( #606, #743 ), #783 ) ;
#242 = DIRECTION ( 'NONE',  ( 0.0000000000000000000, 1.000000000000000000, 0.0000000000000000000 ) ) ;
#243 = CYLINDRICAL_SURFACE ( 'NONE', #517, 1.199999999999999734 ) ;
#244 = AXIS2_PLACEMENT_3D ( 'NONE', #956, #185, #333 ) ;
#245 = FACE_OUTER_BOUND ( 'NONE', #552, .T. ) ;
#246 = ORIENTED_EDGE ( 'NONE', *, *, #229, .F. ) ;
#247 = ORIENTED_EDGE ( 'NONE', *, *, #431, .T. ) ;
#248 = CARTESIAN_POINT ( 'NONE',  ( -2.500000000000002220, 13.99999999999999645, 20.00000000000000000 ) ) ;
#249 = EDGE_LOOP ( 'NONE', ( #71, #538 ) ) ;
#250 = CARTESIAN_POINT ( 'NONE',  ( 2.500000000000000000, 10.49999999999999645, 24.37211521390788249 ) ) ;
#251 = EDGE_CURVE ( 'NONE', #685, #673, #572, .T. ) ;
#252 = CARTESIAN_POINT ( 'NONE',  ( 2.246481536424964176, 9.390881788827339705, 24.39687056485484362 ) ) ;
#253 = LINE ( 'NONE', #303, #430 ) ;
#254 = CARTESIAN_POINT ( 'NONE',  ( 0.0000000000000000000, -1.653273178848926867E-15, 0.0000000000000000000 ) ) ;
#255 = AXIS2_PLACEMENT_3D ( 'NONE', #254, #330, #260 ) ;
#256 = CIRCLE ( 'NONE', #37, 1.199999999999999734 ) ;
#257 = ORIENTED_EDGE ( 'NONE', *, *, #88, .F. ) ;
#258 = ADVANCED_FACE ( 'NONE', ( #634 ), #597, .F. ) ;
#259 = ORIENTED_EDGE ( 'NONE', *, *, #124, .T. ) ;
#260 = DIRECTION ( 'NONE',  ( 0.0000000000000000000, 0.0000000000000000000, 1.000000000000000000 ) ) ;
#261 = CARTESIAN_POINT ( 'NONE',  ( 0.0000000000000000000, -69.29646455628166279, 24.50000000000000000 ) ) ;
#262 = EDGE_CURVE ( 'NONE', #447, #355, #29, .T. ) ;
#263 = CARTESIAN_POINT ( 'NONE',  ( -4.898587196589413026E-15, -1.734723475976807094E-15, -20.00000000000000000 ) ) ;
#264 = SURFACE_STYLE_USAGE ( .BOTH. , #23 ) ;
#265 = CARTESIAN_POINT ( 'NONE',  ( 2.499999999999999556, 13.99999999999999467, 26.38181191654583202 ) ) ;
#266 = CIRCLE ( 'NONE', #927, 1.749999999999998002 ) ;
#267 = VERTEX_POINT ( 'NONE', #946 ) ;
#268 = DIRECTION ( 'NONE',  ( 0.0000000000000000000, 1.000000000000000000, 0.0000000000000000000 ) ) ;
#269 = ORIENTED_EDGE ( 'NONE', *, *, #11, .F. ) ;
#270 = ORIENTED_EDGE ( 'NONE', *, *, #419, .T. ) ;
#271 = DIRECTION ( 'NONE',  ( 8.659560562354932858E-17, -0.7071067811865474617, 0.7071067811865474617 ) ) ;
#272 = CARTESIAN_POINT ( 'NONE',  ( -4.898587196589413026E-15, 2.999999999999998224, -20.00000000000000000 ) ) ;
#273 = ADVANCED_FACE ( 'NONE', ( #362 ), #841, .F. ) ;
#274 = AXIS2_PLACEMENT_3D ( 'NONE', #893, #375, #370 ) ;
#275 = ADVANCED_FACE ( 'NONE', ( #988 ), #422, .T. ) ;
#276 = CIRCLE ( 'NONE', #973, 26.50000000000000355 ) ;
#277 = DIRECTION ( 'NONE',  ( 0.0000000000000000000, 0.0000000000000000000, -1.000000000000000000 ) ) ;
#278 = FACE_BOUND ( 'NONE', #364, .T. ) ;
#279 = FACE_OUTER_BOUND ( 'NONE', #184, .T. ) ;
#280 = EDGE_CURVE ( 'NONE', #148, #6, #3, .T. ) ;
#281 = EDGE_LOOP ( 'NONE', ( #694, #314, #270, #341, #962, #802 ) ) ;
#282 = CARTESIAN_POINT ( 'NONE',  ( 0.0000000000000000000, -69.29646455628166279, 0.0000000000000000000 ) ) ;
#283 = VERTEX_POINT ( 'NONE', #337 ) ;
#284 =( GEOMETRIC_REPRESENTATION_CONTEXT ( 3 ) GLOBAL_UNCERTAINTY_ASSIGNED_CONTEXT ( ( #39 ) ) GLOBAL_UNIT_ASSIGNED_CONTEXT ( ( #574, #103, #114 ) ) REPRESENTATION_CONTEXT ( 'NONE', 'WORKASPACE' ) );
#285 = ORIENTED_EDGE ( 'NONE', *, *, #646, .T. ) ;
#286 = AXIS2_PLACEMENT_3D ( 'NONE', #982, #518, #221 ) ;
#287 = FACE_BOUND ( 'NONE', #1005, .T. ) ;
#288 = FACE_OUTER_BOUND ( 'NONE', #475, .T. ) ;
#289 = ORIENTED_EDGE ( 'NONE', *, *, #192, .T. ) ;
#290 = CARTESIAN_POINT ( 'NONE',  ( -15.00000000000000000, 2.999999999999998224, -1.749999999999996447 ) ) ;
#291 = ORIENTED_EDGE ( 'NONE', *, *, #594, .F. ) ;
#292 = AXIS2_PLACEMENT_3D ( 'NONE', #796, #105, #730 ) ;
#293 = EDGE_LOOP ( 'NONE', ( #487, #648, #912, #222 ) ) ;
#294 = CARTESIAN_POINT ( 'NONE',  ( -2.500000000000002220, 13.99999999999999645, 26.38181191654583202 ) ) ;
#295 = CARTESIAN_POINT ( 'NONE',  ( 15.00000000000000000, -0.0000000000000000000, 1.749999999999998890 ) ) ;
#296 = CARTESIAN_POINT ( 'NONE',  ( 0.0000000000000000000, -1.734723475976807094E-15, 20.00000000000000000 ) ) ;
#297 = CARTESIAN_POINT ( 'NONE',  ( -2.371998918620023655, 9.693473663046940914, 24.38498719542731052 ) ) ;
#298 = EDGE_CURVE ( 'NONE', #5, #220, #461, .T. ) ;
#299 = CARTESIAN_POINT ( 'NONE',  ( -2.499999999999949818, -69.29646455628166279, 24.37211521390788249 ) ) ;
#300 = CARTESIAN_POINT ( 'NONE',  ( -0.3255568142128777986, 8.015829601926988346, 24.49836902564674546 ) ) ;
#301 = CYLINDRICAL_SURFACE ( 'NONE', #203, 27.00000000000000000 ) ;
#302 = CIRCLE ( 'NONE', #945, 24.50000000000000000 ) ;
#303 = CARTESIAN_POINT ( 'NONE',  ( 3.245314017740486554E-15, -1.653273178848926867E-15, -26.50000000000000355 ) ) ;
#304 = ORIENTED_EDGE ( 'NONE', *, *, #473, .F. ) ;
#305 = ORIENTED_EDGE ( 'NONE', *, *, #11, .T. ) ;
#306 = CARTESIAN_POINT ( 'NONE',  ( 2.500000000000001332, 13.49999999999998579, 26.88401011754012515 ) ) ;
#307 = CARTESIAN_POINT ( 'NONE',  ( 1.650527702555266263, 8.615067981737899672, 24.44461992631378067 ) ) ;
#308 = DIRECTION ( 'NONE',  ( 0.0000000000000000000, 0.0000000000000000000, 1.000000000000000000 ) ) ;
#309 = EDGE_CURVE ( 'NONE', #72, #463, #444, .T. ) ;
#310 = CARTESIAN_POINT ( 'NONE',  ( -2.419339062199259427, 9.849255374040348343, 26.89140818460157689 ) ) ;
#311 = LINE ( 'NONE', #778, #923 ) ;
#312 = CARTESIAN_POINT ( 'NONE',  ( 15.00000000000000000, -1.653273178848926867E-15, 9.184850993605151889E-16 ) ) ;
#313 = ORIENTED_EDGE ( 'NONE', *, *, #12, .F. ) ;
#314 = ORIENTED_EDGE ( 'NONE', *, *, #850, .T. ) ;
#315 = CARTESIAN_POINT ( 'NONE',  ( 0.3287140870279930960, 8.016323886257534781, 24.49831904262237003 ) ) ;
#316 = ORIENTED_EDGE ( 'NONE', *, *, #329, .T. ) ;
#317 = CARTESIAN_POINT ( 'NONE',  ( -15.00000000000000000, 0.0000000000000000000, -1.749999999999996447 ) ) ;
#318 = DIRECTION ( 'NONE',  ( -0.0000000000000000000, 1.000000000000000000, -0.0000000000000000000 ) ) ;
#319 = CARTESIAN_POINT ( 'NONE',  ( 0.0000000000000000000, 3.000000000000002665, 0.0000000000000000000 ) ) ;
#320 = PRESENTATION_LAYER_ASSIGNMENT (  '', '', ( #75 ) ) ;
#321 = LINE ( 'NONE', #733, #985 ) ;
#322 = CIRCLE ( 'NONE', #379, 27.00000000000000000 ) ;
#323 = CARTESIAN_POINT ( 'NONE',  ( 3.306546357697853733E-15, 0.0000000000000000000, 27.00000000000000000 ) ) ;
#324 = EDGE_LOOP ( 'NONE', ( #1007, #376, #524, #97 ) ) ;
#325 = ORIENTED_EDGE ( 'NONE', *, *, #50, .T. ) ;
#326 = CARTESIAN_POINT ( 'NONE',  ( 0.0000000000000000000, 13.99999999999999645, -26.49999999999999289 ) ) ;
#327 = EDGE_LOOP ( 'NONE', ( #525, #313 ) ) ;
#328 = DIRECTION ( 'NONE',  ( 0.0000000000000000000, -1.000000000000000000, -0.0000000000000000000 ) ) ;
#329 = EDGE_CURVE ( 'NONE', #786, #588, #42, .T. ) ;
#330 = DIRECTION ( 'NONE',  ( -0.0000000000000000000, -1.000000000000000000, -0.0000000000000000000 ) ) ;
#331 = ADVANCED_FACE ( 'NONE', ( #16 ), #232, .F. ) ;
#332 = CARTESIAN_POINT ( 'NONE',  ( 0.0000000000000000000, 0.0000000000000000000, 0.0000000000000000000 ) ) ;
#333 = DIRECTION ( 'NONE',  ( 0.0000000000000000000, 0.0000000000000000000, 1.000000000000000000 ) ) ;
#334 = ADVANCED_FACE ( 'NONE', ( #245 ), #219, .T. ) ;
#335 = DIRECTION ( 'NONE',  ( 0.0000000000000000000, 0.0000000000000000000, -1.000000000000000000 ) ) ;
#336 = FACE_BOUND ( 'NONE', #249, .T. ) ;
#337 = CARTESIAN_POINT ( 'NONE',  ( -4.567932560819626075E-15, -1.653273178848926867E-15, -17.29999999999999361 ) ) ;
#338 = CIRCLE ( 'NONE', #535, 1.199999999999999734 ) ;
#339 = CIRCLE ( 'NONE', #511, 3.750000000000017319 ) ;
#340 = CARTESIAN_POINT ( 'NONE',  ( 0.0000000000000000000, 2.999999999999998224, 20.00000000000000000 ) ) ;
#341 = ORIENTED_EDGE ( 'NONE', *, *, #142, .F. ) ;
#342 = DIRECTION ( 'NONE',  ( 0.0000000000000000000, 0.0000000000000000000, 1.000000000000000000 ) ) ;
#343 = ADVANCED_FACE ( 'NONE', ( #1001 ), #26, .F. ) ;
#344 = ORIENTED_EDGE ( 'NONE', *, *, #350, .T. ) ;
#345 = AXIS2_PLACEMENT_3D ( 'NONE', #577, #805, #502 ) ;
#346 = CARTESIAN_POINT ( 'NONE',  ( 0.0000000000000000000, 1.500000000000005995, 20.00000000000000000 ) ) ;
#347 = ADVANCED_FACE ( 'NONE', ( #168 ), #746, .F. ) ;
#348 = APPLICATION_PROTOCOL_DEFINITION ( 'draft international standard', 'automotive_design', 1998, #194 ) ;
#349 = CARTESIAN_POINT ( 'NONE',  ( 0.0000000000000000000, 0.5000000000000057732, 0.0000000000000000000 ) ) ;
#350 = EDGE_CURVE ( 'NONE', #160, #760, #811, .T. ) ;
#351 = FACE_OUTER_BOUND ( 'NONE', #281, .T. ) ;
#352 = AXIS2_PLACEMENT_3D ( 'NONE', #413, #725, #99 ) ;
#353 = FACE_OUTER_BOUND ( 'NONE', #686, .T. ) ;
#354 = ADVANCED_FACE ( 'NONE', ( #206 ), #183, .F. ) ;
#355 = VERTEX_POINT ( 'NONE', #819 ) ;
#356 = ORIENTED_EDGE ( 'NONE', *, *, #495, .F. ) ;
#357 = DIRECTION ( 'NONE',  ( -1.239088197126291556E-16, 1.000000000000000000, 0.0000000000000000000 ) ) ;
#358 = AXIS2_PLACEMENT_3D ( 'NONE', #49, #134, #59 ) ;
#359 = CARTESIAN_POINT ( 'NONE',  ( 15.00000000000000000, -1.653273178848926867E-15, -3.750000000000016431 ) ) ;
#360 = VECTOR ( 'NONE', #997, 1000.000000000000000 ) ;
#361 = CARTESIAN_POINT ( 'NONE',  ( -4.898587196589413026E-15, 2.999999999999998224, -20.00000000000000000 ) ) ;
#362 = FACE_OUTER_BOUND ( 'NONE', #123, .T. ) ;
#363 = EDGE_CURVE ( 'NONE', #486, #760, #622, .T. ) ;
#364 = EDGE_LOOP ( 'NONE', ( #161, #259 ) ) ;
#365 = ORIENTED_EDGE ( 'NONE', *, *, #776, .F. ) ;
#366 = ORIENTED_EDGE ( 'NONE', *, *, #213, .T. ) ;
#367 = DIRECTION ( 'NONE',  ( -0.0000000000000000000, -1.000000000000000000, -0.0000000000000000000 ) ) ;
#368 = DIRECTION ( 'NONE',  ( 0.0000000000000000000, 0.0000000000000000000, -1.000000000000000000 ) ) ;
#369 = CARTESIAN_POINT ( 'NONE',  ( 0.1631970869871905705, 7.999999999999996447, 27.00000000000000711 ) ) ;
#370 = DIRECTION ( 'NONE',  ( 6.195440985631456303E-16, -1.000000000000000000, 0.0000000000000000000 ) ) ;
#371 = VECTOR ( 'NONE', #921, 1000.000000000000000 ) ;
#372 = VECTOR ( 'NONE', #488, 1000.000000000000114 ) ;
#373 = DIRECTION ( 'NONE',  ( 0.0000000000000000000, 1.000000000000000000, 0.0000000000000000000 ) ) ;
#374 = LINE ( 'NONE', #437, #707 ) ;
#375 = DIRECTION ( 'NONE',  ( -1.000000000000000000, -6.195440985631456303E-16, 0.0000000000000000000 ) ) ;
#376 = ORIENTED_EDGE ( 'NONE', *, *, #298, .F. ) ;
#377 = CARTESIAN_POINT ( 'NONE',  ( -1.988012043634756809, 8.975366513168777871, 24.41937973973502807 ) ) ;
#378 = ORIENTED_EDGE ( 'NONE', *, *, #817, .F. ) ;
#379 = AXIS2_PLACEMENT_3D ( 'NONE', #983, #749, #692 ) ;
#380 = VERTEX_POINT ( 'NONE', #359 ) ;
#381 = DIRECTION ( 'NONE',  ( 0.0000000000000000000, 0.0000000000000000000, 1.000000000000000000 ) ) ;
#382 = CARTESIAN_POINT ( 'NONE',  ( -4.567932560819626075E-15, -1.734723475976807094E-15, -17.29999999999999361 ) ) ;
#383 = VERTEX_POINT ( 'NONE', #36 ) ;
#384 = DIRECTION ( 'NONE',  ( 0.0000000000000000000, 0.0000000000000000000, -1.000000000000000000 ) ) ;
#385 = EDGE_CURVE ( 'NONE', #207, #616, #961, .T. ) ;
#386 = CARTESIAN_POINT ( 'NONE',  ( -0.3286705619962758118, 8.016318563004050546, 26.99847515760769667 ) ) ;
#387 = FACE_OUTER_BOUND ( 'NONE', #598, .T. ) ;
#388 = LINE ( 'NONE', #317, #411 ) ;
#389 = DIRECTION ( 'NONE',  ( 0.0000000000000000000, 1.000000000000000000, 0.0000000000000000000 ) ) ;
#390 = ORIENTED_EDGE ( 'NONE', *, *, #68, .F. ) ;
#391 = EDGE_LOOP ( 'NONE', ( #415, #719, #136, #710, #401, #425 ) ) ;
#392 = ORIENTED_EDGE ( 'NONE', *, *, #795, .F. ) ;
#393 = AXIS2_PLACEMENT_3D ( 'NONE', #895, #605, #984 ) ;
#394 = CARTESIAN_POINT ( 'NONE',  ( -1.107511481263143027, 8.252728299272984458, 26.97770072416387421 ) ) ;
#395 = CARTESIAN_POINT ( 'NONE',  ( -15.00000000000000000, 2.000000000000018208, 9.184850993605149917E-16 ) ) ;
#396 = EDGE_CURVE ( 'NONE', #220, #5, #400, .T. ) ;
#397 = CARTESIAN_POINT ( 'NONE',  ( -2.500000000000000000, 10.49999999999999645, 24.37211521390788249 ) ) ;
#398 = VECTOR ( 'NONE', #98, 1000.000000000000000 ) ;
#399 = FACE_OUTER_BOUND ( 'NONE', #870, .T. ) ;
#400 = CIRCLE ( 'NONE', #116, 1.199999999999999734 ) ;
#401 = ORIENTED_EDGE ( 'NONE', *, *, #142, .T. ) ;
#402 = ORIENTED_EDGE ( 'NONE', *, *, #717, .T. ) ;
#403 = CARTESIAN_POINT ( 'NONE',  ( 0.0000000000000000000, 13.99999999999999645, 27.00000000000000000 ) ) ;
#404 = EDGE_CURVE ( 'NONE', #786, #614, #950, .T. ) ;
#405 = CARTESIAN_POINT ( 'NONE',  ( 15.00000000000000000, -1.653273178848926867E-15, 9.184850993605151889E-16 ) ) ;
#406 = DIRECTION ( 'NONE',  ( -0.0000000000000000000, 1.000000000000000000, -0.0000000000000000000 ) ) ;
#407 = CARTESIAN_POINT ( 'NONE',  ( 15.00000000000000000, 2.999999999999998224, 9.184850993605151889E-16 ) ) ;
#408 = AXIS2_PLACEMENT_3D ( 'NONE', #296, #835, #998 ) ;
#409 = PRESENTATION_STYLE_ASSIGNMENT (( #165 ) ) ;
#410 = DIRECTION ( 'NONE',  ( 0.0000000000000000000, 0.0000000000000000000, -1.000000000000000000 ) ) ;
#411 = VECTOR ( 'NONE', #162, 1000.000000000000000 ) ;
#412 = ORIENTED_EDGE ( 'NONE', *, *, #715, .F. ) ;
#413 = CARTESIAN_POINT ( 'NONE',  ( -15.00000000000000000, 0.0000000000000000000, 9.184850993605149917E-16 ) ) ;
#414 = ORIENTED_EDGE ( 'NONE', *, *, #122, .F. ) ;
#415 = ORIENTED_EDGE ( 'NONE', *, *, #850, .F. ) ;
#416 = CARTESIAN_POINT ( 'NONE',  ( 0.0000000000000000000, 13.99999999999999645, 0.0000000000000000000 ) ) ;
#417 = EDGE_CURVE ( 'NONE', #953, #92, #256, .T. ) ;
#418 = ADVANCED_FACE ( 'NONE', ( #80 ), #197, .F. ) ;
#419 = EDGE_CURVE ( 'NONE', #267, #503, #876, .T. ) ;
#420 = DIRECTION ( 'NONE',  ( 1.000000000000000000, 0.0000000000000000000, 0.0000000000000000000 ) ) ;
#421 = FACE_OUTER_BOUND ( 'NONE', #391, .T. ) ;
#422 = CONICAL_SURFACE ( 'NONE', #292, 26.50000000000000355, 0.7853981633974380649 ) ;
#423 = ORIENTED_EDGE ( 'NONE', *, *, #601, .F. ) ;
#424 = CARTESIAN_POINT ( 'NONE',  ( 0.0000000000000000000, 10.49999999999999645, 20.00000000000000000 ) ) ;
#425 = ORIENTED_EDGE ( 'NONE', *, *, #631, .T. ) ;
#426 = CARTESIAN_POINT ( 'NONE',  ( 0.0000000000000000000, 2.999999999999998224, 20.00000000000000000 ) ) ;
#427 = ORIENTED_EDGE ( 'NONE', *, *, #213, .F. ) ;
#428 = AXIS2_PLACEMENT_3D ( 'NONE', #837, #367, #384 ) ;
#429 = DIRECTION ( 'NONE',  ( 0.0000000000000000000, 0.0000000000000000000, 1.000000000000000000 ) ) ;
#430 = VECTOR ( 'NONE', #607, 1000.000000000000114 ) ;
#431 = EDGE_CURVE ( 'NONE', #673, #355, #645, .T. ) ;
#432 = VECTOR ( 'NONE', #174, 1000.000000000000000 ) ;
#433 = EDGE_LOOP ( 'NONE', ( #146, #200 ) ) ;
#434 = CARTESIAN_POINT ( 'NONE',  ( 1.469576158976823306E-16, 2.999999999999998224, 18.80000000000000071 ) ) ;
#435 = ORIENTED_EDGE ( 'NONE', *, *, #817, .T. ) ;
#436 = ORIENTED_EDGE ( 'NONE', *, *, #280, .T. ) ;
#437 = CARTESIAN_POINT ( 'NONE',  ( 2.500000000000000000, 10.49999999999999645, 20.00000000000000000 ) ) ;
#438 = DIRECTION ( 'NONE',  ( -0.0000000000000000000, -1.000000000000000000, -0.0000000000000000000 ) ) ;
#439 =( GEOMETRIC_REPRESENTATION_CONTEXT ( 3 ) GLOBAL_UNCERTAINTY_ASSIGNED_CONTEXT ( ( #939 ) ) GLOBAL_UNIT_ASSIGNED_CONTEXT ( ( #875, #210, #212 ) ) REPRESENTATION_CONTEXT ( 'NONE', 'WORKASPACE' ) );
#440 = CARTESIAN_POINT ( 'NONE',  ( 1.525903906422110490, 8.512877811387850713, 26.95719487709706641 ) ) ;
#441 = DIRECTION ( 'NONE',  ( 0.0000000000000000000, 1.000000000000000000, 0.0000000000000000000 ) ) ;
#442 = FACE_OUTER_BOUND ( 'NONE', #586, .T. ) ;
#443 = SURFACE_SIDE_STYLE ('',( #922 ) ) ;
#444 = CIRCLE ( 'NONE', #255, 26.50000000000000355 ) ;
#445 = EDGE_CURVE ( 'NONE', #890, #649, #613, .T. ) ;
#446 = ORIENTED_EDGE ( 'NONE', *, *, #396, .F. ) ;
#447 = VERTEX_POINT ( 'NONE', #115 ) ;
#448 = EDGE_LOOP ( 'NONE', ( #720, #21, #877, #696 ) ) ;
#449 = CARTESIAN_POINT ( 'NONE',  ( 3.306546357697863594E-16, -1.734723475976807094E-15, 22.70000000000000995 ) ) ;
#450 = PLANE ( 'NONE',  #225 ) ;
#451 = EDGE_CURVE ( 'NONE', #223, #486, #131, .T. ) ;
#452 = CARTESIAN_POINT ( 'NONE',  ( -1.252518633537080373, 8.330153554697146134, 24.46834578107418423 ) ) ;
#453 = EDGE_CURVE ( 'NONE', #685, #614, #374, .T. ) ;
#454 = CARTESIAN_POINT ( 'NONE',  ( 2.500000000000000000, 10.49999999999999645, 26.88401011754012515 ) ) ;
#455 = AXIS2_PLACEMENT_3D ( 'NONE', #87, #933, #480 ) ;
#456 = CARTESIAN_POINT ( 'NONE',  ( -15.00000000000000000, 2.000000000000018208, 1.749999999999998002 ) ) ;
#457 = CARTESIAN_POINT ( 'NONE',  ( -3.668439867549271199E-23, 7.999999999999996447, 24.50000000000000000 ) ) ;
#458 = FACE_OUTER_BOUND ( 'NONE', #739, .T. ) ;
#459 = DIRECTION ( 'NONE',  ( -0.0000000000000000000, -1.000000000000000000, -0.0000000000000000000 ) ) ;
#460 = CONICAL_SURFACE ( 'NONE', #766, 1.749999999999998002, 0.7853981633974482790 ) ;
#461 = CIRCLE ( 'NONE', #157, 1.199999999999999734 ) ;
#462 = ORIENTED_EDGE ( 'NONE', *, *, #986, .T. ) ;
#463 = VERTEX_POINT ( 'NONE', #608 ) ;
#464 = CARTESIAN_POINT ( 'NONE',  ( 15.00000000000000000, 2.000000000000017319, 9.184850993605151889E-16 ) ) ;
#465 = EDGE_LOOP ( 'NONE', ( #446, #578, #427, #356 ) ) ;
#466 = DIRECTION ( 'NONE',  ( 0.0000000000000000000, -0.7071067811865500152, -0.7071067811865451302 ) ) ;
#467 = EDGE_CURVE ( 'NONE', #536, #623, #338, .T. ) ;
#468 = DIRECTION ( 'NONE',  ( -0.0000000000000000000, -1.000000000000000000, -0.0000000000000000000 ) ) ;
#469 = DIRECTION ( 'NONE',  ( -0.0000000000000000000, -1.000000000000000000, -0.0000000000000000000 ) ) ;
#470 = VECTOR ( 'NONE', #65, 1000.000000000000114 ) ;
#471 = VECTOR ( 'NONE', #779, 1000.000000000000000 ) ;
#472 = CARTESIAN_POINT ( 'NONE',  ( -2.500000000000001776, 13.83334029193261294, 26.54921824472967273 ) ) ;
#473 = EDGE_CURVE ( 'NONE', #623, #649, #822, .T. ) ;
#474 = EDGE_LOOP ( 'NONE', ( #670, #34 ) ) ;
#475 = EDGE_LOOP ( 'NONE', ( #289, #402, #246, #378, #789 ) ) ;
#476 = CARTESIAN_POINT ( 'NONE',  ( -15.00000000000000000, -1.653273178848926867E-15, 9.184850993605149917E-16 ) ) ;
#477 = VERTEX_POINT ( 'NONE', #595 ) ;
#478 = CARTESIAN_POINT ( 'NONE',  ( -2.246503757176076643, 9.390923760282145594, 26.90645252944841559 ) ) ;
#479 = DIRECTION ( 'NONE',  ( 0.0000000000000000000, 0.0000000000000000000, 1.000000000000000000 ) ) ;
#480 = DIRECTION ( 'NONE',  ( 0.0000000000000000000, 0.0000000000000000000, -1.000000000000000000 ) ) ;
#481 = CARTESIAN_POINT ( 'NONE',  ( 0.0000000000000000000, 13.49999999999998579, 0.0000000000000000000 ) ) ;
#482 = AXIS2_PLACEMENT_3D ( 'NONE', #687, #373, #906 ) ;
#483 = CARTESIAN_POINT ( 'NONE',  ( 2.483431694395004552, 10.16947891541733640, 24.37383033234669227 ) ) ;
#484 = FACE_OUTER_BOUND ( 'NONE', #173, .T. ) ;
#485 = CARTESIAN_POINT ( 'NONE',  ( 0.0000000000000000000, 1.500000000000005995, 20.00000000000000000 ) ) ;
#486 = VERTEX_POINT ( 'NONE', #599 ) ;
#487 = ORIENTED_EDGE ( 'NONE', *, *, #363, .F. ) ;
#488 = DIRECTION ( 'NONE',  ( 0.0000000000000000000, -0.7071067811865474617, -0.7071067811865474617 ) ) ;
#489 = VERTEX_POINT ( 'NONE', #904 ) ;
#490 = AXIS2_PLACEMENT_3D ( 'NONE', #214, #438, #821 ) ;
#491 = CARTESIAN_POINT ( 'NONE',  ( 2.499999999999999556, 13.83334029193260939, 26.54921824472967273 ) ) ;
#492 = ORIENTED_EDGE ( 'NONE', *, *, #954, .T. ) ;
#493 = ADVANCED_FACE ( 'NONE', ( #288 ), #141, .F. ) ;
#494 = CARTESIAN_POINT ( 'NONE',  ( 2.168178678379716118, 9.244820632870784038, 24.40404166008621090 ) ) ;
#495 = EDGE_CURVE ( 'NONE', #5, #736, #757, .T. ) ;
#496 = CARTESIAN_POINT ( 'NONE',  ( -15.00000000000000000, -1.653273178848926867E-15, 3.750000000000018208 ) ) ;
#497 = CARTESIAN_POINT ( 'NONE',  ( 3.000384657911015469E-15, -69.29646455628166279, -24.50000000000000000 ) ) ;
#498 = FILL_AREA_STYLE ('',( #211 ) ) ;
#499 = FACE_BOUND ( 'NONE', #327, .T. ) ;
#500 = FACE_BOUND ( 'NONE', #761, .T. ) ;
#501 = EDGE_LOOP ( 'NONE', ( #977, #772, #732, #637, #573, #247 ) ) ;
#502 = DIRECTION ( 'NONE',  ( 0.0000000000000000000, 0.0000000000000000000, 1.000000000000000000 ) ) ;
#503 = VERTEX_POINT ( 'NONE', #127 ) ;
#504 = ADVANCED_FACE ( 'NONE', ( #387 ), #596, .T. ) ;
#505 = VERTEX_POINT ( 'NONE', #216 ) ;
#506 = DIRECTION ( 'NONE',  ( 0.0000000000000000000, 0.0000000000000000000, 1.000000000000000000 ) ) ;
#507 = EDGE_CURVE ( 'NONE', #649, #890, #547, .T. ) ;
#508 = CARTESIAN_POINT ( 'NONE',  ( 15.00000000000000000, 2.000000000000017319, 1.749999999999998890 ) ) ;
#509 = ADVANCED_FACE ( 'NONE', ( #205, #716, #278, #500, #38 ), #450, .F. ) ;
#510 = EDGE_CURVE ( 'NONE', #477, #736, #840, .T. ) ;
#511 = AXIS2_PLACEMENT_3D ( 'NONE', #312, #155, #931 ) ;
#512 = CIRCLE ( 'NONE', #734, 1.199999999999999734 ) ;
#513 = DIRECTION ( 'NONE',  ( 1.000000000000000000, 1.239088197126291556E-16, 0.0000000000000000000 ) ) ;
#514 = FACE_OUTER_BOUND ( 'NONE', #41, .T. ) ;
#515 = ORIENTED_EDGE ( 'NONE', *, *, #467, .F. ) ;
#516 = ORIENTED_EDGE ( 'NONE', *, *, #717, .F. ) ;
#517 = AXIS2_PLACEMENT_3D ( 'NONE', #714, #724, #89 ) ;
#518 = DIRECTION ( 'NONE',  ( 0.0000000000000000000, 1.000000000000000000, 0.0000000000000000000 ) ) ;
#519 = B_SPLINE_CURVE_WITH_KNOTS ( 'NONE', 3,
 ( #1006, #930, #386, #235, #539, #394, #702, #767, #74, #551, #544, #629, #478, #773, #310, #76, #849, #765 ),
 .UNSPECIFIED., .F., .F.,
 ( 4, 2, 2, 2, 2, 2, 2, 2, 4 ),
 ( 0.003911064743270529012, 0.004399508204309365324, 0.004887951665348200768, 0.005376395126387037079, 0.005864838587425874258, 0.006353282048464709703, 0.006841725509503546881, 0.007330168970542383193, 0.007818612431581219505 ),
 .UNSPECIFIED. ) ;
#520 = DIRECTION ( 'NONE',  ( 0.0000000000000000000, 0.0000000000000000000, 1.000000000000000000 ) ) ;
#521 = FACE_OUTER_BOUND ( 'NONE', #324, .T. ) ;
#522 = AXIS2_PLACEMENT_3D ( 'NONE', #481, #9, #848 ) ;
#523 = VECTOR ( 'NONE', #529, 1000.000000000000000 ) ;
#524 = ORIENTED_EDGE ( 'NONE', *, *, #495, .T. ) ;
#525 = ORIENTED_EDGE ( 'NONE', *, *, #208, .F. ) ;
#526 = ORIENTED_EDGE ( 'NONE', *, *, #628, .T. ) ;
#527 = CARTESIAN_POINT ( 'NONE',  ( 15.00000000000000000, -0.0000000000000000000, 9.184850993605151889E-16 ) ) ;
#528 = AXIS2_PLACEMENT_3D ( 'NONE', #949, #406, #656 ) ;
#529 = DIRECTION ( 'NONE',  ( -0.0000000000000000000, 1.000000000000000000, -0.0000000000000000000 ) ) ;
#530 = DIRECTION ( 'NONE',  ( 0.0000000000000000000, -1.000000000000000000, 0.0000000000000000000 ) ) ;
#531 = CARTESIAN_POINT ( 'NONE',  ( -4.898587196589413026E-15, -1.653273178848926867E-15, -22.70000000000000995 ) ) ;
#532 = DIRECTION ( 'NONE',  ( -0.0000000000000000000, -1.000000000000000000, -0.0000000000000000000 ) ) ;
#533 = SURFACE_STYLE_FILL_AREA ( #24 ) ;
#534 = LINE ( 'NONE', #626, #910 ) ;
#535 = AXIS2_PLACEMENT_3D ( 'NONE', #826, #979, #520 ) ;
#536 = VERTEX_POINT ( 'NONE', #900 ) ;
#537 = DIRECTION ( 'NONE',  ( 0.0000000000000000000, 1.000000000000000000, 0.0000000000000000000 ) ) ;
#538 = ORIENTED_EDGE ( 'NONE', *, *, #507, .F. ) ;
#539 = CARTESIAN_POINT ( 'NONE',  ( -0.8049272880397768670, 8.127468896097017392, 26.98842363133961797 ) ) ;
#540 = CARTESIAN_POINT ( 'NONE',  ( -2.169550077576370750, 9.247102711435479350, 24.40392081653903134 ) ) ;
#541 = AXIS2_PLACEMENT_3D ( 'NONE', #405, #242, #308 ) ;
#542 = CARTESIAN_POINT ( 'NONE',  ( 1.524356257744174936, 8.511829874225245618, 24.45290788343681854 ) ) ;
#543 = CARTESIAN_POINT ( 'NONE',  ( -2.246395738818835586, 9.390689499396106754, 24.39687860312677259 ) ) ;
#544 = CARTESIAN_POINT ( 'NONE',  ( -1.987223081906153599, 8.974410956425938224, 26.92692300545435558 ) ) ;
#545 = EDGE_CURVE ( 'NONE', #588, #207, #104, .T. ) ;
#546 = CONICAL_SURFACE ( 'NONE', #428, 2.700000000000008171, 0.7853981633974485010 ) ;
#547 = CIRCLE ( 'NONE', #393, 1.199999999999999734 ) ;
#548 = CARTESIAN_POINT ( 'NONE',  ( 15.00000000000000000, 2.999999999999998224, -1.749999999999997113 ) ) ;
#549 = VECTOR ( 'NONE', #147, 1000.000000000000114 ) ;
#550 = ORIENTED_EDGE ( 'NONE', *, *, #192, .F. ) ;
#551 = CARTESIAN_POINT ( 'NONE',  ( -1.883856975191270378, 8.848246102726626816, 26.93445292713178674 ) ) ;
#552 = EDGE_LOOP ( 'NONE', ( #18, #993, #699, #823 ) ) ;
#553 = DIRECTION ( 'NONE',  ( 0.0000000000000000000, 0.0000000000000000000, 1.000000000000000000 ) ) ;
#554 = APPLICATION_CONTEXT ( 'automotive_design' ) ;
#555 = CARTESIAN_POINT ( 'NONE',  ( 15.00000000000000000, 2.000000000000017319, -1.749999999999997113 ) ) ;
#556 = CARTESIAN_POINT ( 'NONE',  ( 0.0000000000000000000, 3.000000000000002665, 24.50000000000000000 ) ) ;
#557 = DIRECTION ( 'NONE',  ( 0.0000000000000000000, 0.0000000000000000000, -1.000000000000000000 ) ) ;
#558 = CARTESIAN_POINT ( 'NONE',  ( 2.499999999999999556, 13.99999999999999467, 20.00000000000000000 ) ) ;
#559 = VECTOR ( 'NONE', #903, 1000.000000000000000 ) ;
#560 = EDGE_CURVE ( 'NONE', #536, #890, #667, .T. ) ;
#561 = CIRCLE ( 'NONE', #968, 1.749999999999998002 ) ;
#562 = EDGE_CURVE ( 'NONE', #760, #486, #768, .T. ) ;
#563 = ORIENTED_EDGE ( 'NONE', *, *, #298, .T. ) ;
#564 = PRODUCT_CONTEXT ( 'NONE', #194, 'mechanical' ) ;
#565 = ORIENTED_EDGE ( 'NONE', *, *, #581, .T. ) ;
#566 = CARTESIAN_POINT ( 'NONE',  ( 2.500000000000001332, 13.49999999999998579, 26.88401011754012515 ) ) ;
#567 = CARTESIAN_POINT ( 'NONE',  ( -2.500000000000001332, 14.00000000000000000, 24.37211521390788249 ) ) ;
#568 = CARTESIAN_POINT ( 'NONE',  ( -4.898587196589413026E-15, -1.734723475976807094E-15, -20.00000000000000000 ) ) ;
#569 = ADVANCED_FACE ( 'NONE', ( #67 ), #460, .F. ) ;
#570 = AXIS2_PLACEMENT_3D ( 'NONE', #416, #175, #869 ) ;
#571 = CARTESIAN_POINT ( 'NONE',  ( 2.500000000000010214, -69.29646455628166279, 24.37211521390788249 ) ) ;
#572 = LINE ( 'NONE', #571, #158 ) ;
#573 = ORIENTED_EDGE ( 'NONE', *, *, #251, .T. ) ;
#574 =( LENGTH_UNIT ( ) NAMED_UNIT ( * ) SI_UNIT ( .MILLI., .METRE. ) );
#575 = VERTEX_POINT ( 'NONE', #62 ) ;
#576 = AXIS2_PLACEMENT_3D ( 'NONE', #627, #469, #553 ) ;
#577 = CARTESIAN_POINT ( 'NONE',  ( -15.00000000000000000, 2.999999999999998224, 9.184850993605149917E-16 ) ) ;
#578 = ORIENTED_EDGE ( 'NONE', *, *, #665, .T. ) ;
#579 = CARTESIAN_POINT ( 'NONE',  ( -15.00000000000000000, 2.000000000000018208, 9.184850993605149917E-16 ) ) ;
#580 = ADVANCED_FACE ( 'NONE', ( #620 ), #680, .F. ) ;
#581 = EDGE_CURVE ( 'NONE', #283, #587, #181, .T. ) ;
#582 =( NAMED_UNIT ( * ) SI_UNIT ( $, .STERADIAN. ) SOLID_ANGLE_UNIT ( ) );
#583 = DIRECTION ( 'NONE',  ( 0.0000000000000000000, 1.000000000000000000, 0.0000000000000000000 ) ) ;
#584 = PRODUCT_DEFINITION_FORMATION_WITH_SPECIFIED_SOURCE ( 'ANY', '', #745, .NOT_KNOWN. ) ;
#585 = LINE ( 'NONE', #248, #471 ) ;
#586 = EDGE_LOOP ( 'NONE', ( #915, #305, #198, #871 ) ) ;
#587 = VERTEX_POINT ( 'NONE', #531 ) ;
#588 = VERTEX_POINT ( 'NONE', #911 ) ;
#589 = ORIENTED_EDGE ( 'NONE', *, *, #560, .F. ) ;
#590 = AXIS2_PLACEMENT_3D ( 'NONE', #527, #459, #899 ) ;
#591 = DIRECTION ( 'NONE',  ( -0.0000000000000000000, -1.000000000000000000, -0.0000000000000000000 ) ) ;
#592 = DIRECTION ( 'NONE',  ( -0.0000000000000000000, -1.000000000000000000, -0.0000000000000000000 ) ) ;
#593 = DIRECTION ( 'NONE',  ( 0.0000000000000000000, 1.000000000000000000, 0.0000000000000000000 ) ) ;
#594 = EDGE_CURVE ( 'NONE', #536, #283, #744, .T. ) ;
#595 = CARTESIAN_POINT ( 'NONE',  ( 3.306546357697863594E-16, -1.653273178848926867E-15, 22.70000000000000995 ) ) ;
#596 = CONICAL_SURFACE ( 'NONE', #95, 27.00000000000000000, 0.7853981633974447263 ) ;
#597 = CYLINDRICAL_SURFACE ( 'NONE', #352, 1.749999999999997113 ) ;
#598 = EDGE_LOOP ( 'NONE', ( #624, #989, #672, #516 ) ) ;
#599 = CARTESIAN_POINT ( 'NONE',  ( 15.00000000000000000, 2.000000000000017319, 1.749999999999998890 ) ) ;
#600 = VERTEX_POINT ( 'NONE', #150 ) ;
#601 = EDGE_CURVE ( 'NONE', #83, #1004, #794, .T. ) ;
#602 = ORIENTED_EDGE ( 'NONE', *, *, #594, .T. ) ;
#603 = CARTESIAN_POINT ( 'NONE',  ( 15.00000000000000000, 2.999999999999998224, 9.184850993605151889E-16 ) ) ;
#604 = CARTESIAN_POINT ( 'NONE',  ( 1.988045505776740773, 8.975409495056439368, 26.92686322671113075 ) ) ;
#605 = DIRECTION ( 'NONE',  ( -0.0000000000000000000, 1.000000000000000000, -0.0000000000000000000 ) ) ;
#606 = MANIFOLD_SOLID_BREP ( 'Chamfer7', #224 ) ;
#607 = DIRECTION ( 'NONE',  ( 8.659560562354844111E-17, 0.7071067811865549002, -0.7071067811865402453 ) ) ;
#608 = CARTESIAN_POINT ( 'NONE',  ( 0.0000000000000000000, -1.653273178848926867E-15, 26.50000000000000355 ) ) ;
#609 = CARTESIAN_POINT ( 'NONE',  ( -1.651789170398098916, 8.616341766094077315, 24.44452822050130436 ) ) ;
#610 = LINE ( 'NONE', #323, #987 ) ;
#611 = AXIS2_PLACEMENT_3D ( 'NONE', #272, #885, #964 ) ;
#612 = PLANE ( 'NONE',  #482 ) ;
#613 = CIRCLE ( 'NONE', #169, 1.199999999999999734 ) ;
#614 = VERTEX_POINT ( 'NONE', #454 ) ;
#615 = ORIENTED_EDGE ( 'NONE', *, *, #473, .T. ) ;
#616 = VERTEX_POINT ( 'NONE', #294 ) ;
#617 = EDGE_CURVE ( 'NONE', #72, #503, #253, .T. ) ;
#618 = CARTESIAN_POINT ( 'NONE',  ( 2.372024509876402121, 9.693548295162230488, 26.89567757836193707 ) ) ;
#619 = PRESENTATION_LAYER_ASSIGNMENT (  '', '', ( #969 ) ) ;
#620 = FACE_OUTER_BOUND ( 'NONE', #856, .T. ) ;
#621 = AXIS2_PLACEMENT_3D ( 'NONE', #403, #328, #410 ) ;
#622 = CIRCLE ( 'NONE', #128, 1.749999999999998002 ) ;
#623 = VERTEX_POINT ( 'NONE', #678 ) ;
#624 = ORIENTED_EDGE ( 'NONE', *, *, #385, .F. ) ;
#625 = ORIENTED_EDGE ( 'NONE', *, *, #445, .T. ) ;
#626 = CARTESIAN_POINT ( 'NONE',  ( 0.0000000000000000000, 13.49999999999998579, -27.00000000000000000 ) ) ;
#627 = CARTESIAN_POINT ( 'NONE',  ( -4.898587196589413026E-15, 1.500000000000005995, -20.00000000000000000 ) ) ;
#628 = EDGE_CURVE ( 'NONE', #83, #774, #90, .T. ) ;
#629 = CARTESIAN_POINT ( 'NONE',  ( -2.168212974873474863, 9.244878490852725506, 26.91295395556790382 ) ) ;
#630 = CARTESIAN_POINT ( 'NONE',  ( -15.00000000000000000, 2.000000000000018208, -1.749999999999996447 ) ) ;
#631 = EDGE_CURVE ( 'NONE', #503, #267, #322, .T. ) ;
#632 = LINE ( 'NONE', #10, #217 ) ;
#633 = CONICAL_SURFACE ( 'NONE', #824, 1.749999999999998002, 0.7853981633974482790 ) ;
#634 = FACE_OUTER_BOUND ( 'NONE', #891, .T. ) ;
#635 = ORIENTED_EDGE ( 'NONE', *, *, #68, .T. ) ;
#636 = PRODUCT_RELATED_PRODUCT_CATEGORY ( 'part', '', ( #745 ) ) ;
#637 = ORIENTED_EDGE ( 'NONE', *, *, #795, .T. ) ;
#638 = ORIENTED_EDGE ( 'NONE', *, *, #562, .F. ) ;
#639 = CARTESIAN_POINT ( 'NONE',  ( 1.987194579247492321, 8.974374970952332831, 24.41944524007073625 ) ) ;
#640 = DIRECTION ( 'NONE',  ( -0.0000000000000000000, -1.000000000000000000, -0.0000000000000000000 ) ) ;
#641 = DIRECTION ( 'NONE',  ( 0.0000000000000000000, 0.0000000000000000000, 1.000000000000000000 ) ) ;
#642 = COLOUR_RGB ( '',0.8980392156862745390, 0.9176470588235293713, 0.9294117647058823817 ) ;
#643 = ADVANCED_FACE ( 'NONE', ( #51 ), #546, .F. ) ;
#644 = PLANE ( 'NONE',  #621 ) ;
#645 = CIRCLE ( 'NONE', #887, 24.50000000000000000 ) ;
#646 = EDGE_CURVE ( 'NONE', #815, #729, #130, .T. ) ;
#647 = ORIENTED_EDGE ( 'NONE', *, *, #262, .T. ) ;
#648 = ORIENTED_EDGE ( 'NONE', *, *, #967, .T. ) ;
#649 = VERTEX_POINT ( 'NONE', #764 ) ;
#650 = DIRECTION ( 'NONE',  ( -0.0000000000000000000, -0.0000000000000000000, 1.000000000000000000 ) ) ;
#651 = CARTESIAN_POINT ( 'NONE',  ( 15.00000000000000000, -1.653273178848926867E-15, 3.750000000000018208 ) ) ;
#652 = ADVANCED_FACE ( 'NONE', ( #484 ), #896, .F. ) ;
#653 = EDGE_CURVE ( 'NONE', #614, #505, #126, .T. ) ;
#654 = CARTESIAN_POINT ( 'NONE',  ( 0.0000000000000000000, 1.500000000000005995, 21.19999999999999929 ) ) ;
#655 = ADVANCED_FACE ( 'NONE', ( #521 ), #852, .F. ) ;
#656 = DIRECTION ( 'NONE',  ( 0.0000000000000000000, 0.0000000000000000000, 1.000000000000000000 ) ) ;
#657 = CIRCLE ( 'NONE', #738, 27.00000000000000000 ) ;
#658 = DIRECTION ( 'NONE',  ( 0.0000000000000000000, 0.0000000000000000000, 1.000000000000000000 ) ) ;
#659 = CIRCLE ( 'NONE', #576, 1.199999999999999734 ) ;
#660 = ORIENTED_EDGE ( 'NONE', *, *, #453, .F. ) ;
#661 = ORIENTED_EDGE ( 'NONE', *, *, #176, .T. ) ;
#662 = ADVANCED_FACE ( 'NONE', ( #947, #499, #336, #287, #79 ), #612, .T. ) ;
#663 = ORIENTED_EDGE ( 'NONE', *, *, #363, .T. ) ;
#664 = DIRECTION ( 'NONE',  ( 0.0000000000000000000, 1.000000000000000000, -0.0000000000000000000 ) ) ;
#665 = EDGE_CURVE ( 'NONE', #220, #477, #14, .T. ) ;
#666 = DIRECTION ( 'NONE',  ( 0.0000000000000000000, 0.0000000000000000000, 1.000000000000000000 ) ) ;
#667 = LINE ( 'NONE', #43, #705 ) ;
#668 = VECTOR ( 'NONE', #591, 1000.000000000000000 ) ;
#669 = CARTESIAN_POINT ( 'NONE',  ( 2.499999999999999556, 13.99999999999999467, 20.00000000000000000 ) ) ;
#670 = ORIENTED_EDGE ( 'NONE', *, *, #47, .F. ) ;
#671 = DIRECTION ( 'NONE',  ( 0.0000000000000000000, 0.0000000000000000000, 1.000000000000000000 ) ) ;
#672 = ORIENTED_EDGE ( 'NONE', *, *, #677, .F. ) ;
#673 = VERTEX_POINT ( 'NONE', #58 ) ;
#674 = AXIS2_PLACEMENT_3D ( 'NONE', #100, #182, #4 ) ;
#675 = B_SPLINE_CURVE_WITH_KNOTS ( 'NONE', 3,
 ( #842, #472, #240, #1009 ),
 .UNSPECIFIED., .F., .F.,
 ( 4, 4 ),
 ( 0.0000000000000000000, 0.0007086628486677687497 ),
 .UNSPECIFIED. ) ;
#676 = CARTESIAN_POINT ( 'NONE',  ( -4.898587196589413026E-15, 2.999999999999998224, -20.00000000000000000 ) ) ;
#677 = EDGE_CURVE ( 'NONE', #489, #575, #657, .T. ) ;
#678 = CARTESIAN_POINT ( 'NONE',  ( -4.751629580691730375E-15, 1.500000000000005995, -21.19999999999999929 ) ) ;
#679 = DIRECTION ( 'NONE',  ( 0.0000000000000000000, -0.0000000000000000000, 1.000000000000000000 ) ) ;
#680 = CONICAL_SURFACE ( 'NONE', #754, 1.749999999999997113, 0.7853981633974482790 ) ;
#681 = VECTOR ( 'NONE', #688, 1000.000000000000000 ) ;
#682 = LINE ( 'NONE', #434, #951 ) ;
#683 = CARTESIAN_POINT ( 'NONE',  ( 0.6483871889864519789, 8.079941707562378284, 26.99269647322699939 ) ) ;
#684 = CARTESIAN_POINT ( 'NONE',  ( 0.0000000000000000000, -1.734723475976807094E-15, 17.29999999999999361 ) ) ;
#685 = VERTEX_POINT ( 'NONE', #226 ) ;
#686 = EDGE_LOOP ( 'NONE', ( #898, #936, #56, #414 ) ) ;
#687 = CARTESIAN_POINT ( 'NONE',  ( 0.0000000000000000000, 2.999999999999998224, 0.0000000000000000000 ) ) ;
#688 = DIRECTION ( 'NONE',  ( 0.0000000000000000000, -0.7071067811865474617, -0.7071067811865476838 ) ) ;
#689 = CARTESIAN_POINT ( 'NONE',  ( -4.898587196589413026E-15, -1.653273178848926867E-15, -20.00000000000000000 ) ) ;
#690 = CARTESIAN_POINT ( 'NONE',  ( -0.8061727867159472760, 8.127952712322208839, 24.48719582356983082 ) ) ;
#691 = MECHANICAL_DESIGN_GEOMETRIC_PRESENTATION_REPRESENTATION (  '', ( #75 ), #439 ) ;
#692 = DIRECTION ( 'NONE',  ( 0.0000000000000000000, 0.0000000000000000000, 1.000000000000000000 ) ) ;
#693 = DIRECTION ( 'NONE',  ( 0.0000000000000000000, 0.0000000000000000000, -1.000000000000000000 ) ) ;
#694 = ORIENTED_EDGE ( 'NONE', *, *, #653, .T. ) ;
#695 = EDGE_LOOP ( 'NONE', ( #32, #316, #7, #787, #45 ) ) ;
#696 = ORIENTED_EDGE ( 'NONE', *, *, #33, .F. ) ;
#697 = DIRECTION ( 'NONE',  ( -0.0000000000000000000, 1.000000000000000000, -0.0000000000000000000 ) ) ;
#698 = DIRECTION ( 'NONE',  ( 0.0000000000000000000, -1.000000000000000000, 0.0000000000000000000 ) ) ;
#699 = ORIENTED_EDGE ( 'NONE', *, *, #33, .T. ) ;
#700 = DIRECTION ( 'NONE',  ( 0.0000000000000000000, 0.0000000000000000000, 1.000000000000000000 ) ) ;
#701 = EDGE_CURVE ( 'NONE', #220, #92, #144, .T. ) ;
#702 = CARTESIAN_POINT ( 'NONE',  ( -1.253695912227157372, 8.330960137107005892, 26.97121810261262809 ) ) ;
#703 = AXIS2_PLACEMENT_3D ( 'NONE', #579, #191, #809 ) ;
#704 = CARTESIAN_POINT ( 'NONE',  ( 0.1630702663362895988, 7.999999999999996447, 24.50000000000000000 ) ) ;
#705 = VECTOR ( 'NONE', #975, 1000.000000000000000 ) ;
#706 = AXIS2_PLACEMENT_3D ( 'NONE', #971, #583, #277 ) ;
#707 = VECTOR ( 'NONE', #48, 1000.000000000000000 ) ;
#708 = DIRECTION ( 'NONE',  ( 0.0000000000000000000, 0.0000000000000000000, 1.000000000000000000 ) ) ;
#709 = CIRCLE ( 'NONE', #874, 3.750000000000017319 ) ;
#710 = ORIENTED_EDGE ( 'NONE', *, *, #677, .T. ) ;
#711 = CARTESIAN_POINT ( 'NONE',  ( 0.8049906005885957283, 8.127489417793448467, 24.48723989427014658 ) ) ;
#712 = AXIS2_PLACEMENT_3D ( 'NONE', #568, #178, #180 ) ;
#713 = CARTESIAN_POINT ( 'NONE',  ( -15.00000000000000000, -1.653273178848926867E-15, -3.750000000000016431 ) ) ;
#714 = CARTESIAN_POINT ( 'NONE',  ( 0.0000000000000000000, 2.999999999999998224, 20.00000000000000000 ) ) ;
#715 = EDGE_CURVE ( 'NONE', #505, #383, #519, .T. ) ;
#716 = FACE_BOUND ( 'NONE', #109, .T. ) ;
#717 = EDGE_CURVE ( 'NONE', #616, #489, #675, .T. ) ;
#718 = CARTESIAN_POINT ( 'NONE',  ( 15.00000000000000000, 2.999999999999998224, 1.749999999999998890 ) ) ;
#719 = ORIENTED_EDGE ( 'NONE', *, *, #715, .T. ) ;
#720 = ORIENTED_EDGE ( 'NONE', *, *, #309, .F. ) ;
#721 = ORIENTED_EDGE ( 'NONE', *, *, #417, .F. ) ;
#722 = AXIS2_PLACEMENT_3D ( 'NONE', #851, #318, #785 ) ;
#723 = ADVANCED_FACE ( 'NONE', ( #351 ), #301, .T. ) ;
#724 = DIRECTION ( 'NONE',  ( -0.0000000000000000000, 1.000000000000000000, -0.0000000000000000000 ) ) ;
#725 = DIRECTION ( 'NONE',  ( -0.0000000000000000000, -1.000000000000000000, -0.0000000000000000000 ) ) ;
#726 = CARTESIAN_POINT ( 'NONE',  ( 1.469576158976823306E-16, 2.999999999999998224, 18.80000000000000071 ) ) ;
#727 = VECTOR ( 'NONE', #190, 1000.000000000000000 ) ;
#728 = AXIS2_PLACEMENT_3D ( 'NONE', #361, #894, #671 ) ;
#729 = VERTEX_POINT ( 'NONE', #397 ) ;
#730 = DIRECTION ( 'NONE',  ( 0.0000000000000000000, 0.0000000000000000000, 1.000000000000000000 ) ) ;
#731 = ORIENTED_EDGE ( 'NONE', *, *, #507, .T. ) ;
#732 = ORIENTED_EDGE ( 'NONE', *, *, #818, .T. ) ;
#733 = CARTESIAN_POINT ( 'NONE',  ( -15.00000000000000000, 2.000000000000018208, -1.749999999999996447 ) ) ;
#734 = AXIS2_PLACEMENT_3D ( 'NONE', #340, #957, #506 ) ;
#735 = LINE ( 'NONE', #164, #371 ) ;
#736 = VERTEX_POINT ( 'NONE', #159 ) ;
#737 = ORIENTED_EDGE ( 'NONE', *, *, #628, .F. ) ;
#738 = AXIS2_PLACEMENT_3D ( 'NONE', #84, #468, #78 ) ;
#739 = EDGE_LOOP ( 'NONE', ( #758, #436, #17, #881 ) ) ;
#740 = CARTESIAN_POINT ( 'NONE',  ( 15.00000000000000000, 0.0000000000000000000, -1.749999999999997113 ) ) ;
#741 = EDGE_CURVE ( 'NONE', #207, #575, #534, .T. ) ;
#742 = DIRECTION ( 'NONE',  ( -0.0000000000000000000, 1.000000000000000000, -0.0000000000000000000 ) ) ;
#743 = AXIS2_PLACEMENT_3D ( 'NONE', #859, #867, #929 ) ;
#744 = LINE ( 'NONE', #382, #360 ) ;
#745 = PRODUCT ( 'TA26.001_RevC Housing', 'TA26.001_RevC Housing', '', ( #564 ) ) ;
#746 = CYLINDRICAL_SURFACE ( 'NONE', #611, 1.199999999999999734 ) ;
#747 = LINE ( 'NONE', #73, #549 ) ;
#748 = EDGE_LOOP ( 'NONE', ( #304, #963, #966, #625 ) ) ;
#749 = DIRECTION ( 'NONE',  ( 0.0000000000000000000, 1.000000000000000000, 0.0000000000000000000 ) ) ;
#750 = DIRECTION ( 'NONE',  ( 0.0000000000000000000, 0.0000000000000000000, 1.000000000000000000 ) ) ;
#751 = CARTESIAN_POINT ( 'NONE',  ( 2.246428090601694905, 9.390754553110198799, 26.90645895521019781 ) ) ;
#752 = CARTESIAN_POINT ( 'NONE',  ( 0.0000000000000000000, -1.653273178848926867E-15, 0.0000000000000000000 ) ) ;
#753 = DIRECTION ( 'NONE',  ( 0.0000000000000000000, 1.000000000000000000, 0.0000000000000000000 ) ) ;
#754 = AXIS2_PLACEMENT_3D ( 'NONE', #991, #1000, #693 ) ;
#755 = DIRECTION ( 'NONE',  ( 0.0000000000000000000, -1.000000000000000000, 0.0000000000000000000 ) ) ;
#756 = CARTESIAN_POINT ( 'NONE',  ( -2.483760326403706920, 10.17211552525508367, 24.37379651260640756 ) ) ;
#757 = LINE ( 'NONE', #684, #681 ) ;
#758 = ORIENTED_EDGE ( 'NONE', *, *, #763, .F. ) ;
#759 = CARTESIAN_POINT ( 'NONE',  ( 2.420166178854887828, 9.852416261371454098, 26.89133345998754621 ) ) ;
#760 = VERTEX_POINT ( 'NONE', #555 ) ;
#761 = EDGE_LOOP ( 'NONE', ( #872, #635 ) ) ;
#762 = CARTESIAN_POINT ( 'NONE',  ( -0.6484305032222542620, 8.079952957392437796, 24.49194990274435924 ) ) ;
#763 = EDGE_CURVE ( 'NONE', #148, #83, #735, .T. ) ;
#764 = CARTESIAN_POINT ( 'NONE',  ( -4.751629580691730375E-15, 2.999999999999998224, -21.19999999999999929 ) ) ;
#765 = CARTESIAN_POINT ( 'NONE',  ( -2.500000000000000000, 10.49999999999999645, 26.88401011754012160 ) ) ;
#766 = AXIS2_PLACEMENT_3D ( 'NONE', #145, #999, #919 ) ;
#767 = CARTESIAN_POINT ( 'NONE',  ( -1.524330643494057336, 8.511808998999610409, 26.95727685557908160 ) ) ;
#768 = CIRCLE ( 'NONE', #238, 1.749999999999998002 ) ;
#769 = LINE ( 'NONE', #952, #432 ) ;
#770 = DIRECTION ( 'NONE',  ( 0.0000000000000000000, 0.0000000000000000000, -1.000000000000000000 ) ) ;
#771 = ORIENTED_EDGE ( 'NONE', *, *, #124, .F. ) ;
#772 = ORIENTED_EDGE ( 'NONE', *, *, #177, .T. ) ;
#773 = CARTESIAN_POINT ( 'NONE',  ( -2.372008064746300438, 9.693521868063717406, 26.89567892043712405 ) ) ;
#774 = VERTEX_POINT ( 'NONE', #630 ) ;
#775 = DIRECTION ( 'NONE',  ( 0.0000000000000000000, -0.7071067811865474617, -0.7071067811865476838 ) ) ;
#776 = EDGE_CURVE ( 'NONE', #587, #283, #868, .T. ) ;
#777 = CARTESIAN_POINT ( 'NONE',  ( -3.668439867549271199E-23, 7.999999999999996447, 24.50000000000000000 ) ) ;
#778 = CARTESIAN_POINT ( 'NONE',  ( -4.898587196589413026E-15, -1.734723475976807094E-15, -22.70000000000000995 ) ) ;
#779 = DIRECTION ( 'NONE',  ( -0.0000000000000000000, -0.0000000000000000000, 1.000000000000000000 ) ) ;
#780 = CIRCLE ( 'NONE', #570, 24.50000000000000000 ) ;
#781 = LINE ( 'NONE', #261, #398 ) ;
#782 = SHAPE_DEFINITION_REPRESENTATION ( #189, #241 ) ;
#783 =( GEOMETRIC_REPRESENTATION_CONTEXT ( 3 ) GLOBAL_UNCERTAINTY_ASSIGNED_CONTEXT ( ( #201 ) ) GLOBAL_UNIT_ASSIGNED_CONTEXT ( ( #879, #804, #582 ) ) REPRESENTATION_CONTEXT ( 'NONE', 'WORKASPACE' ) );
#784 = LINE ( 'NONE', #1008, #798 ) ;
#785 = DIRECTION ( 'NONE',  ( 0.0000000000000000000, 0.0000000000000000000, 1.000000000000000000 ) ) ;
#786 = VERTEX_POINT ( 'NONE', #306 ) ;
#787 = ORIENTED_EDGE ( 'NONE', *, *, #251, .F. ) ;
#788 = DIRECTION ( 'NONE',  ( 0.0000000000000000000, -1.000000000000000000, 0.0000000000000000000 ) ) ;
#789 = ORIENTED_EDGE ( 'NONE', *, *, #646, .F. ) ;
#790 = DIRECTION ( 'NONE',  ( -0.0000000000000000000, -1.000000000000000000, -0.0000000000000000000 ) ) ;
#791 = APPLICATION_PROTOCOL_DEFINITION ( 'draft international standard', 'automotive_design', 1998, #554 ) ;
#792 = CARTESIAN_POINT ( 'NONE',  ( 1.883884403644005223, 8.848276668422077051, 24.42774374747994415 ) ) ;
#793 = DIRECTION ( 'NONE',  ( 0.0000000000000000000, 0.0000000000000000000, 1.000000000000000000 ) ) ;
#794 = LINE ( 'NONE', #456, #470 ) ;
#795 = EDGE_CURVE ( 'NONE', #600, #685, #843, .T. ) ;
#796 = CARTESIAN_POINT ( 'NONE',  ( 0.0000000000000000000, -1.653273178848926867E-15, 0.0000000000000000000 ) ) ;
#797 = ADVANCED_FACE ( 'NONE', ( #820 ), #27, .F. ) ;
#798 = VECTOR ( 'NONE', #86, 1000.000000000000000 ) ;
#799 = ORIENTED_EDGE ( 'NONE', *, *, #176, .F. ) ;
#800 = EDGE_LOOP ( 'NONE', ( #93, #812 ) ) ;
#801 = DIRECTION ( 'NONE',  ( -0.0000000000000000000, -1.000000000000000000, -0.0000000000000000000 ) ) ;
#802 = ORIENTED_EDGE ( 'NONE', *, *, #404, .T. ) ;
#803 = ADVANCED_FACE ( 'NONE', ( #421 ), #808, .T. ) ;
#804 =( NAMED_UNIT ( * ) PLANE_ANGLE_UNIT ( ) SI_UNIT ( $, .RADIAN. ) );
#805 = DIRECTION ( 'NONE',  ( 0.0000000000000000000, 1.000000000000000000, 0.0000000000000000000 ) ) ;
#806 = CARTESIAN_POINT ( 'NONE',  ( 15.00000000000000000, 2.000000000000017319, 9.184850993605151889E-16 ) ) ;
#807 = ADVANCED_FACE ( 'NONE', ( #442 ), #243, .F. ) ;
#808 = CYLINDRICAL_SURFACE ( 'NONE', #920, 27.00000000000000000 ) ;
#809 = DIRECTION ( 'NONE',  ( 0.0000000000000000000, 0.0000000000000000000, 1.000000000000000000 ) ) ;
#810 = CYLINDRICAL_SURFACE ( 'NONE', #884, 2.500000000000000000 ) ;
#811 = LINE ( 'NONE', #740, #668 ) ;
#812 = ORIENTED_EDGE ( 'NONE', *, *, #309, .T. ) ;
#813 = CARTESIAN_POINT ( 'NONE',  ( 15.00000000000000000, -0.0000000000000000000, 9.184850993605151889E-16 ) ) ;
#814 = ORIENTED_EDGE ( 'NONE', *, *, #510, .T. ) ;
#815 = VERTEX_POINT ( 'NONE', #567 ) ;
#816 = CARTESIAN_POINT ( 'NONE',  ( 2.500000000000001332, 3.097720492815730617E-16, 26.88401011754012515 ) ) ;
#817 = EDGE_CURVE ( 'NONE', #729, #383, #632, .T. ) ;
#818 = EDGE_CURVE ( 'NONE', #121, #600, #781, .T. ) ;
#819 = CARTESIAN_POINT ( 'NONE',  ( 3.000384657911015469E-15, 13.99999999999999645, -24.50000000000000000 ) ) ;
#820 = FACE_OUTER_BOUND ( 'NONE', #832, .T. ) ;
#821 = DIRECTION ( 'NONE',  ( 0.0000000000000000000, 0.0000000000000000000, -1.000000000000000000 ) ) ;
#822 = LINE ( 'NONE', #54, #523 ) ;
#823 = ORIENTED_EDGE ( 'NONE', *, *, #631, .F. ) ;
#824 = AXIS2_PLACEMENT_3D ( 'NONE', #944, #937, #557 ) ;
#825 = ORIENTED_EDGE ( 'NONE', *, *, #980, .F. ) ;
#826 = CARTESIAN_POINT ( 'NONE',  ( -4.898587196589413026E-15, 1.500000000000005995, -20.00000000000000000 ) ) ;
#827 = AXIS2_PLACEMENT_3D ( 'NONE', #46, #753, #60 ) ;
#828 = DIRECTION ( 'NONE',  ( -0.0000000000000000000, -1.000000000000000000, -0.0000000000000000000 ) ) ;
#829 = ADVANCED_FACE ( 'NONE', ( #195 ), #644, .F. ) ;
#830 = CARTESIAN_POINT ( 'NONE',  ( 0.3255227401996170777, 8.015825482931850487, 26.99852039998149067 ) ) ;
#831 = CIRCLE ( 'NONE', #541, 3.750000000000017319 ) ;
#832 = EDGE_LOOP ( 'NONE', ( #935, #647, #844, #285, #325, #96 ) ) ;
#833 = ORIENTED_EDGE ( 'NONE', *, *, #954, .F. ) ;
#834 = ORIENTED_EDGE ( 'NONE', *, *, #846, .F. ) ;
#835 = DIRECTION ( 'NONE',  ( -0.0000000000000000000, -1.000000000000000000, -0.0000000000000000000 ) ) ;
#836 = DIRECTION ( 'NONE',  ( 0.0000000000000000000, 0.0000000000000000000, 1.000000000000000000 ) ) ;
#837 = CARTESIAN_POINT ( 'NONE',  ( 0.0000000000000000000, -1.734723475976807094E-15, 20.00000000000000000 ) ) ;
#838 = CARTESIAN_POINT ( 'NONE',  ( -0.1632183110459834163, 7.999999999999996447, 24.50000000000000711 ) ) ;
#839 = AXIS2_PLACEMENT_3D ( 'NONE', #64, #530, #381 ) ;
#840 = CIRCLE ( 'NONE', #286, 2.700000000000008171 ) ;
#841 = CONICAL_SURFACE ( 'NONE', #81, 2.700000000000008171, 0.7853981633974485010 ) ;
#842 = CARTESIAN_POINT ( 'NONE',  ( -2.500000000000002220, 13.99999999999999645, 26.38181191654583202 ) ) ;
#843 = B_SPLINE_CURVE_WITH_KNOTS ( 'NONE', 3,
 ( #777, #704, #315, #70, #711, #918, #230, #542, #307, #792, #639, #494, #252, #863, #172, #483, #8, #250 ),
 .UNSPECIFIED., .F., .F.,
 ( 4, 2, 2, 2, 2, 2, 2, 2, 4 ),
 ( 0.003911518910232240388, 0.004400015288475077335, 0.004888511666717914282, 0.005377008044960751229, 0.005865504423203587309, 0.006354000801446425123, 0.006842497179689261202, 0.007330993557932098149, 0.007819489936174935096 ),
 .UNSPECIFIED. ) ;
#844 = ORIENTED_EDGE ( 'NONE', *, *, #865, .T. ) ;
#845 = ORIENTED_EDGE ( 'NONE', *, *, #967, .F. ) ;
#846 = EDGE_CURVE ( 'NONE', #925, #1004, #1, .T. ) ;
#847 = ORIENTED_EDGE ( 'NONE', *, *, #25, .T. ) ;
#848 = DIRECTION ( 'NONE',  ( 0.0000000000000000000, 0.0000000000000000000, -1.000000000000000000 ) ) ;
#849 = CARTESIAN_POINT ( 'NONE',  ( -2.499999999999999556, 10.33483467338632167, 26.88401011754012870 ) ) ;
#850 = EDGE_CURVE ( 'NONE', #505, #267, #610, .T. ) ;
#851 = CARTESIAN_POINT ( 'NONE',  ( 0.0000000000000000000, -69.29646455628166279, 0.0000000000000000000 ) ) ;
#852 = CONICAL_SURFACE ( 'NONE', #408, 2.700000000000008171, 0.7853981633974485010 ) ;
#853 = CIRCLE ( 'NONE', #522, 27.00000000000000000 ) ;
#854 = CARTESIAN_POINT ( 'NONE',  ( 0.0000000000000000000, 2.999999999999998224, 21.19999999999999929 ) ) ;
#855 = VECTOR ( 'NONE', #239, 1000.000000000000000 ) ;
#856 = EDGE_LOOP ( 'NONE', ( #423, #825, #492, #390 ) ) ;
#857 = DIRECTION ( 'NONE',  ( -0.0000000000000000000, -1.000000000000000000, -0.0000000000000000000 ) ) ;
#858 = EDGE_LOOP ( 'NONE', ( #976, #565 ) ) ;
#859 = CARTESIAN_POINT ( 'NONE',  ( 0.0000000000000000000, 0.0000000000000000000, 0.0000000000000000000 ) ) ;
#860 = AXIS2_PLACEMENT_3D ( 'NONE', #196, #268, #666 ) ;
#861 = DIRECTION ( 'NONE',  ( -0.0000000000000000000, -1.000000000000000000, -0.0000000000000000000 ) ) ;
#862 = CARTESIAN_POINT ( 'NONE',  ( -15.00000000000000000, 2.999999999999998224, 1.749999999999998002 ) ) ;
#863 = CARTESIAN_POINT ( 'NONE',  ( 2.371978297466381225, 9.693438498190255714, 24.38498906311273018 ) ) ;
#864 = EDGE_CURVE ( 'NONE', #760, #380, #118, .T. ) ;
#865 = EDGE_CURVE ( 'NONE', #355, #815, #780, .T. ) ;
#866 = FACE_OUTER_BOUND ( 'NONE', #293, .T. ) ;
#867 = DIRECTION ( 'NONE',  ( 0.0000000000000000000, 0.0000000000000000000, 1.000000000000000000 ) ) ;
#868 = CIRCLE ( 'NONE', #941, 2.700000000000008171 ) ;
#869 = DIRECTION ( 'NONE',  ( 0.0000000000000000000, 0.0000000000000000000, 1.000000000000000000 ) ) ;
#870 = EDGE_LOOP ( 'NONE', ( #269, #563, #44, #462 ) ) ;
#871 = ORIENTED_EDGE ( 'NONE', *, *, #701, .F. ) ;
#872 = ORIENTED_EDGE ( 'NONE', *, *, #846, .T. ) ;
#873 = CARTESIAN_POINT ( 'NONE',  ( 15.00000000000000000, 2.000000000000017319, -1.749999999999997113 ) ) ;
#874 = AXIS2_PLACEMENT_3D ( 'NONE', #476, #77, #479 ) ;
#875 =( LENGTH_UNIT ( ) NAMED_UNIT ( * ) SI_UNIT ( .MILLI., .METRE. ) );
#876 = CIRCLE ( 'NONE', #22, 27.00000000000000000 ) ;
#877 = ORIENTED_EDGE ( 'NONE', *, *, #419, .F. ) ;
#878 = ADVANCED_FACE ( 'NONE', ( #866 ), #633, .F. ) ;
#879 =( LENGTH_UNIT ( ) NAMED_UNIT ( * ) SI_UNIT ( .MILLI., .METRE. ) );
#880 = EDGE_LOOP ( 'NONE', ( #992, #188, #902, #550, #69, #234 ) ) ;
#881 = ORIENTED_EDGE ( 'NONE', *, *, #980, .T. ) ;
#882 = FILL_AREA_STYLE_COLOUR ( '', #166 ) ;
#883 = DIRECTION ( 'NONE',  ( 0.0000000000000000000, 0.0000000000000000000, 1.000000000000000000 ) ) ;
#884 = AXIS2_PLACEMENT_3D ( 'NONE', #424, #108, #420 ) ;
#885 = DIRECTION ( 'NONE',  ( -0.0000000000000000000, 1.000000000000000000, -0.0000000000000000000 ) ) ;
#886 = VECTOR ( 'NONE', #697, 1000.000000000000000 ) ;
#887 = AXIS2_PLACEMENT_3D ( 'NONE', #117, #664, #836 ) ;
#888 = EDGE_LOOP ( 'NONE', ( #845, #638, #119, #771 ) ) ;
#889 = DIRECTION ( 'NONE',  ( 0.0000000000000000000, 0.0000000000000000000, 1.000000000000000000 ) ) ;
#890 = VERTEX_POINT ( 'NONE', #91 ) ;
#891 = EDGE_LOOP ( 'NONE', ( #847, #57, #526, #257 ) ) ;
#892 = EDGE_CURVE ( 'NONE', #463, #72, #276, .T. ) ;
#893 = CARTESIAN_POINT ( 'NONE',  ( -2.500000000000000000, 10.49999999999999645, 20.00000000000000000 ) ) ;
#894 = DIRECTION ( 'NONE',  ( -0.0000000000000000000, 1.000000000000000000, -0.0000000000000000000 ) ) ;
#895 = CARTESIAN_POINT ( 'NONE',  ( -4.898587196589413026E-15, 2.999999999999998224, -20.00000000000000000 ) ) ;
#896 = CYLINDRICAL_SURFACE ( 'NONE', #590, 1.749999999999998002 ) ;
#897 = VECTOR ( 'NONE', #120, 1000.000000000000000 ) ;
#898 = ORIENTED_EDGE ( 'NONE', *, *, #741, .F. ) ;
#899 = DIRECTION ( 'NONE',  ( 0.0000000000000000000, 0.0000000000000000000, -1.000000000000000000 ) ) ;
#900 = CARTESIAN_POINT ( 'NONE',  ( -4.898587196589413026E-15, 1.500000000000005995, -18.80000000000000071 ) ) ;
#901 = ORIENTED_EDGE ( 'NONE', *, *, #350, .F. ) ;
#902 = ORIENTED_EDGE ( 'NONE', *, *, #385, .T. ) ;
#903 = DIRECTION ( 'NONE',  ( 8.659560562354936556E-17, -0.7071067811865474617, 0.7071067811865476838 ) ) ;
#904 = CARTESIAN_POINT ( 'NONE',  ( -2.499999999999992895, 13.49999999999998579, 26.88401011754012160 ) ) ;
#905 = CARTESIAN_POINT ( 'NONE',  ( -2.500000000000000000, 10.49999999999999645, 24.37211521390788249 ) ) ;
#906 = DIRECTION ( 'NONE',  ( 0.0000000000000000000, -0.0000000000000000000, 1.000000000000000000 ) ) ;
#907 = CARTESIAN_POINT ( 'NONE',  ( 0.0000000000000000000, 13.49999999999998579, 0.0000000000000000000 ) ) ;
#908 = CARTESIAN_POINT ( 'NONE',  ( -1.525926094453642801, 8.512895051131803115, 24.45281778740097778 ) ) ;
#909 = FACE_OUTER_BOUND ( 'NONE', #171, .T. ) ;
#910 = VECTOR ( 'NONE', #466, 1000.000000000000114 ) ;
#911 = CARTESIAN_POINT ( 'NONE',  ( 2.499999999999999556, 13.99999999999999467, 26.38181191654583202 ) ) ;
#912 = ORIENTED_EDGE ( 'NONE', *, *, #66, .F. ) ;
#913 = AXIS2_PLACEMENT_3D ( 'NONE', #395, #788, #770 ) ;
#914 = ORIENTED_EDGE ( 'NONE', *, *, #467, .T. ) ;
#915 = ORIENTED_EDGE ( 'NONE', *, *, #396, .T. ) ;
#916 = CARTESIAN_POINT ( 'NONE',  ( 2.500000000000000000, 10.49999999999999645, 26.88401011754012515 ) ) ;
#917 = CARTESIAN_POINT ( 'NONE',  ( 0.0000000000000000000, 3.000000000000002665, 0.0000000000000000000 ) ) ;
#918 = CARTESIAN_POINT ( 'NONE',  ( 1.107596455700420091, 8.252769166053933958, 24.47541945703670763 ) ) ;
#919 = DIRECTION ( 'NONE',  ( 0.0000000000000000000, 0.0000000000000000000, -1.000000000000000000 ) ) ;
#920 = AXIS2_PLACEMENT_3D ( 'NONE', #332, #790, #335 ) ;
#921 = DIRECTION ( 'NONE',  ( -0.0000000000000000000, -1.000000000000000000, -0.0000000000000000000 ) ) ;
#922 = SURFACE_STYLE_FILL_AREA ( #498 ) ;
#923 = VECTOR ( 'NONE', #775, 1000.000000000000000 ) ;
#924 = CARTESIAN_POINT ( 'NONE',  ( 0.0000000000000000000, 0.0000000000000000000, 0.0000000000000000000 ) ) ;
#925 = VERTEX_POINT ( 'NONE', #713 ) ;
#926 = EDGE_LOOP ( 'NONE', ( #515, #602, #365, #799 ) ) ;
#927 = AXIS2_PLACEMENT_3D ( 'NONE', #407, #102, #342 ) ;
#928 = CARTESIAN_POINT ( 'NONE',  ( 0.0000000000000000000, 2.999999999999998224, 21.19999999999999929 ) ) ;
#929 = DIRECTION ( 'NONE',  ( 1.000000000000000000, 0.0000000000000000000, 0.0000000000000000000 ) ) ;
#930 = CARTESIAN_POINT ( 'NONE',  ( -0.1630503307553395065, 7.999999999999998224, 27.00000000000000000 ) ) ;
#931 = DIRECTION ( 'NONE',  ( 0.0000000000000000000, 0.0000000000000000000, 1.000000000000000000 ) ) ;
#932 = MECHANICAL_DESIGN_GEOMETRIC_PRESENTATION_REPRESENTATION (  '', ( #969 ), #284 ) ;
#933 = DIRECTION ( 'NONE',  ( -0.0000000000000000000, -1.000000000000000000, -0.0000000000000000000 ) ) ;
#934 = LINE ( 'NONE', #508, #167 ) ;
#935 = ORIENTED_EDGE ( 'NONE', *, *, #47, .T. ) ;
#936 = ORIENTED_EDGE ( 'NONE', *, *, #545, .F. ) ;
#937 = DIRECTION ( 'NONE',  ( 0.0000000000000000000, -1.000000000000000000, 0.0000000000000000000 ) ) ;
#938 = EDGE_LOOP ( 'NONE', ( #978, #85, #344, #236 ) ) ;
#939 = UNCERTAINTY_MEASURE_WITH_UNIT (LENGTH_MEASURE( 1.000000000000000082E-05 ), #875, 'distance_accuracy_value', 'NONE');
#940 = DIRECTION ( 'NONE',  ( -0.0000000000000000000, 1.000000000000000000, -0.0000000000000000000 ) ) ;
#941 = AXIS2_PLACEMENT_3D ( 'NONE', #152, #389, #708 ) ;
#942 = CARTESIAN_POINT ( 'NONE',  ( 2.500000000000001776, 13.66667349556296251, 26.71661751649121541 ) ) ;
#943 = ADVANCED_FACE ( 'NONE', ( #458 ), #958, .F. ) ;
#944 = CARTESIAN_POINT ( 'NONE',  ( 15.00000000000000000, 2.000000000000017319, 9.184850993605151889E-16 ) ) ;
#945 = AXIS2_PLACEMENT_3D ( 'NONE', #917, #532, #700 ) ;
#946 = CARTESIAN_POINT ( 'NONE',  ( 3.306546357697853733E-15, 0.5000000000000057732, 27.00000000000000000 ) ) ;
#947 = FACE_BOUND ( 'NONE', #433, .T. ) ;
#948 = ADVANCED_FACE ( 'NONE', ( #399 ), #218, .F. ) ;
#949 = CARTESIAN_POINT ( 'NONE',  ( 0.0000000000000000000, 2.999999999999998224, 20.00000000000000000 ) ) ;
#950 = LINE ( 'NONE', #816, #897 ) ;
#951 = VECTOR ( 'NONE', #972, 1000.000000000000000 ) ;
#952 = CARTESIAN_POINT ( 'NONE',  ( -2.499999999999992895, -1.548860246407859589E-15, 26.88401011754012160 ) ) ;
#953 = VERTEX_POINT ( 'NONE', #726 ) ;
#954 = EDGE_CURVE ( 'NONE', #774, #925, #321, .T. ) ;
#955 = ORIENTED_EDGE ( 'NONE', *, *, #138, .F. ) ;
#956 = CARTESIAN_POINT ( 'NONE',  ( 0.0000000000000000000, -1.653273178848926867E-15, 20.00000000000000000 ) ) ;
#957 = DIRECTION ( 'NONE',  ( -0.0000000000000000000, 1.000000000000000000, -0.0000000000000000000 ) ) ;
#958 = CYLINDRICAL_SURFACE ( 'NONE', #455, 1.749999999999997113 ) ;
#959 = AXIS2_PLACEMENT_3D ( 'NONE', #813, #193, #125 ) ;
#960 = CIRCLE ( 'NONE', #703, 1.749999999999997113 ) ;
#961 = CIRCLE ( 'NONE', #706, 26.49999999999999289 ) ;
#962 = ORIENTED_EDGE ( 'NONE', *, *, #122, .T. ) ;
#963 = ORIENTED_EDGE ( 'NONE', *, *, #138, .T. ) ;
#964 = DIRECTION ( 'NONE',  ( 0.0000000000000000000, 0.0000000000000000000, 1.000000000000000000 ) ) ;
#965 = ADVANCED_FACE ( 'NONE', ( #909 ), #810, .F. ) ;
#966 = ORIENTED_EDGE ( 'NONE', *, *, #560, .T. ) ;
#967 = EDGE_CURVE ( 'NONE', #486, #209, #934, .T. ) ;
#968 = AXIS2_PLACEMENT_3D ( 'NONE', #603, #593, #750 ) ;
#969 = STYLED_ITEM ( 'NONE', ( #2 ), #241 ) ;
#970 = B_SPLINE_CURVE_WITH_KNOTS ( 'NONE', 3,
 ( #905, #63, #756, #1002, #297, #543, #540, #377, #153, #609, #908, #452, #994, #690, #762, #300, #838, #457 ),
 .UNSPECIFIED., .F., .F.,
 ( 4, 2, 2, 2, 2, 2, 2, 2, 4 ),
 ( 0.0000000000000000000, 0.0004889398637790300485, 0.0009778797275580600971, 0.001466819591337090254, 0.001955759455116120194, 0.002444699318895150134, 0.002933639182674180508, 0.003422579046453210448, 0.003911518910232240388 ),
 .UNSPECIFIED. ) ;
#971 = CARTESIAN_POINT ( 'NONE',  ( 0.0000000000000000000, 13.99999999999999645, 0.0000000000000000000 ) ) ;
#972 = DIRECTION ( 'NONE',  ( -0.0000000000000000000, 1.000000000000000000, -0.0000000000000000000 ) ) ;
#973 = AXIS2_PLACEMENT_3D ( 'NONE', #179, #861, #793 ) ;
#974 = CIRCLE ( 'NONE', #244, 2.700000000000008171 ) ;
#975 = DIRECTION ( 'NONE',  ( -0.0000000000000000000, 1.000000000000000000, -0.0000000000000000000 ) ) ;
#976 = ORIENTED_EDGE ( 'NONE', *, *, #776, .T. ) ;
#977 = ORIENTED_EDGE ( 'NONE', *, *, #262, .F. ) ;
#978 = ORIENTED_EDGE ( 'NONE', *, *, #451, .F. ) ;
#979 = DIRECTION ( 'NONE',  ( -0.0000000000000000000, -1.000000000000000000, -0.0000000000000000000 ) ) ;
#980 = EDGE_CURVE ( 'NONE', #774, #83, #960, .T. ) ;
#981 = CARTESIAN_POINT ( 'NONE',  ( 1.107042298449272266, 8.252561216909942488, 26.97771536498381550 ) ) ;
#982 = CARTESIAN_POINT ( 'NONE',  ( 0.0000000000000000000, -1.653273178848926867E-15, 20.00000000000000000 ) ) ;
#983 = CARTESIAN_POINT ( 'NONE',  ( 0.0000000000000000000, 0.5000000000000057732, 0.0000000000000000000 ) ) ;
#984 = DIRECTION ( 'NONE',  ( 0.0000000000000000000, 0.0000000000000000000, 1.000000000000000000 ) ) ;
#985 = VECTOR ( 'NONE', #28, 1000.000000000000114 ) ;
#986 = EDGE_CURVE ( 'NONE', #92, #953, #512, .T. ) ;
#987 = VECTOR ( 'NONE', #640, 1000.000000000000000 ) ;
#988 = FACE_OUTER_BOUND ( 'NONE', #448, .T. ) ;
#989 = ORIENTED_EDGE ( 'NONE', *, *, #741, .T. ) ;
#990 = CARTESIAN_POINT ( 'NONE',  ( 3.306546396784215536E-15, 7.999999999999996447, 27.00000000000000000 ) ) ;
#991 = CARTESIAN_POINT ( 'NONE',  ( -15.00000000000000000, 2.000000000000018208, 9.184850993605149917E-16 ) ) ;
#992 = ORIENTED_EDGE ( 'NONE', *, *, #101, .T. ) ;
#993 = ORIENTED_EDGE ( 'NONE', *, *, #892, .F. ) ;
#994 = CARTESIAN_POINT ( 'NONE',  ( -1.107099986347314102, 8.252589819981515973, 24.47543673735213332 ) ) ;
#995 = PRODUCT_DEFINITION_CONTEXT ( 'detailed design', #554, 'design' ) ;
#996 = CARTESIAN_POINT ( 'NONE',  ( 2.499999999999999556, 10.33468573494300280, 26.88401011754012160 ) ) ;
#997 = DIRECTION ( 'NONE',  ( 8.659560562354936556E-17, -0.7071067811865474617, 0.7071067811865476838 ) ) ;
#998 = DIRECTION ( 'NONE',  ( 0.0000000000000000000, 0.0000000000000000000, -1.000000000000000000 ) ) ;
#999 = DIRECTION ( 'NONE',  ( 0.0000000000000000000, -1.000000000000000000, 0.0000000000000000000 ) ) ;
#1000 = DIRECTION ( 'NONE',  ( 0.0000000000000000000, -1.000000000000000000, 0.0000000000000000000 ) ) ;
#1001 = FACE_OUTER_BOUND ( 'NONE', #695, .T. ) ;
#1002 = CARTESIAN_POINT ( 'NONE',  ( -2.420150180181200650, 9.852352956337560030, 24.38019472650556096 ) ) ;
#1003 = AXIS2_PLACEMENT_3D ( 'NONE', #319, #19, #15 ) ;
#1004 = VERTEX_POINT ( 'NONE', #496 ) ;
#1005 = EDGE_LOOP ( 'NONE', ( #163, #721 ) ) ;
#1006 = CARTESIAN_POINT ( 'NONE',  ( 3.306546396784215536E-15, 7.999999999999996447, 27.00000000000000000 ) ) ;
#1007 = ORIENTED_EDGE ( 'NONE', *, *, #665, .F. ) ;
#1008 = CARTESIAN_POINT ( 'NONE',  ( 0.0000000000000000000, 0.0000000000000000000, -27.00000000000000000 ) ) ;
#1009 = CARTESIAN_POINT ( 'NONE',  ( -2.499999999999992895, 13.49999999999998579, 26.88401011754012160 ) ) ;
ENDSEC;
END-ISO-10303-21;
